{
    "type": "message_screen",
    "image": "https://www.example.com/image.png",
    "title": "Nenhum frete para exibir",
    "description": "Por enquanto esse produto não pode ser entregue no CEP informado.",
    "button": {
        "label": "Escolher outro produto"
    },
    "action": {
        "type": "webview",
        "property": {
            "webview": {
                "url": "https://cdn.picpay.com/apps/picpay/digital-goods/spotify-terms03.html"
            }
        }
    }
}
