{
  "type": "button",
  "label": "Continuar",
  "action": {
    "type": "payment",
    "property": {
      "payment": {
        "store_id": "14373",
        "description": "Spotify Premium",
        "disclaimer": "**Importante:** Você receberá o código PIN no valor escolhido após o pagamento. O crédito não é reembolsado pelo PicPay.",
        "value": "17.0",
        "logo_url": "https://cdn.picpay.com/apps/picpay/digital-goods/spotify-terms03.html",
        "info_url": "https://cdn.picpay.com/picpay/sellers/spotify-avatar.png",
      }
    }
  }
}
