{
  "type": "primary_card",
  "title": "Meu título",
  "subtitle": "Meu subtítulo",
  "image": "Minha Url",
  "action": {
      "property": {
          "navigation": {
              "screen_id": "screenId"
          }
      },
      "type": "open_screen"
  }
}
