{
   "version":1,
   "created_at":"2020-07-17T14:01:16.613216-03:00",
   "updated_at":"2020-07-17T14:01:16.613216-03:00",
   "identifier":"34e7f6ed-d19a-4c1d-b9dd-16b8735c3e46",
   "body":{
      "header":null,
      "components":[
         {
            "type":"section_header",
            "text":"Recargas",
            "action_title":"ver mais",
            "action":{
               "type":"open_screen",
               "property":{
                  "navigation":{
                     "screen_id":"14373"
                  }
               }
            }
         },
        {
            "type": "list",
            "items": [
                {
                    "type" : "primary_item",
                    "image": "https://s3-sa-east-1.amazonaws.com/picpay/sellers/7a106f7011b811e887ed6a00019bc060.png",
                    "title": "Uber",
                    "subtitle" : "Compre créditos para viajar de Uber",
                    "action": {
                        "type":"open_legacy_digital_good",
                        "property":{
                           "legacy_digital_good":{
                              "_id": "5a8487870ce368f8f334cf05",
                              "name": "Uber Pré-Pago",
                              "description": "Compre créditos para viajar de Uber",
                              "service": "digitalcodes",
                              "enabled": true,
                              "seller_id": 14365,
                              "image_url": "https://s3-sa-east-1.amazonaws.com/picpay/sellers/7a106f7011b811e887ed6a00019bc060.png",
                              "banner_img_url": "https://s3-sa-east-1.amazonaws.com/picpay/stores/7a106f7011b811e887ed6a00019bc060.jpg",
                              "updated_at": "2020-03-12 17:22:46",
                              "created_at": "2018-02-14 13:02:09",
                              "info_url": "https://cdn.picpay.com/apps/picpay/digital-goods/uberterms.html",
                              "description_large": "Dê um Uber Pré-Pago para amigos e familiares ou use os vales para adicionar créditos à sua conta.\n\nO app da Uber conecta você a uma viagem confiável em apenas alguns minutos. Você pode escolher entre as opções econômicas ou premium para viajar do seu jeito. O pagamento é fácil e sem complicações!\n\n● Opções econômicas e premium\n● Sistema de avaliações mútuas para manter a qualidade\n● Pagamento sem complicação",
                              "description_large_markdown": "Dê um Uber Pré-Pago para amigos e familiares ou use os vales para adicionar créditos à sua conta.\n\nO app da Uber conecta você a uma viagem confiável em apenas alguns minutos. Você pode escolher entre as opções econômicas ou premium para viajar do seu jeito. O pagamento é fácil e sem complicações!\n\n● Opções econômicas e premium\n● Sistema de avaliações mútuas para manter a qualidade\n● Pagamento sem complicação",
                              "disclaimer_markdown": "**Importante**: Você receberá o código PIN no valor da recarga escolhida após o pagamento. \n\nO crédito não é reembolsável pelo PicPay.",
                              "min_version_android_string": "9.5.12",
                              "min_version_android_integer": 905012,
                              "min_version_ios_string": "9.5.28",
                              "min_version_ios_integer": 905028,
                              "selection_type": "grid",
                              "order": 20,
                              "identifier": "uber",
                              "category": "services",
                              "cupom_fields": {
                                 "universal_link_title": "Abrir no Uber",
                                 "universal_link_ios": "https://m.uber.com/ul/?action=applyPromo&client_id=VGYZ8Pg_T2cLyy1OMzAhiMQbYbCwFagG&promo=>>digital_code<<",
                                 "universal_link_android": "https://m.uber.com/ul/?action=applyPromo&client_id=VGYZ8Pg_T2cLyy1OMzAhiMQbYbCwFagG&promo=>>digital_code<<"
                              }
                           }
                        }
                    }
                }
            ]
        }
      ]
   }
}

