{
  "version": 1,
  "created_at": "2020-07-17T14:01:16.613216-03:00",
  "updated_at": "2020-07-17T14:01:16.613216-03:00",
  "identifier": "34e7f6ed-d19a-4c1d-b9dd-16b8735c3e46",
  "body": {
    "header": {
      "type": "store_header",
      "title": "iFood",
      "banner": "https://movile.blog/wp-content/uploads/2018/06/03.png",
      "avatar": "https://lh3.googleusercontent.com/FrMp1xgQ4_QjTp7pO0QCc8T24FyZNhhONviUk886e3A53-J9iN_6aBYoEuIHasphjg",
      "is_favorite": false,
      "action": {
        "type": "favorite",
        "property": {
          "favorite": {
            "service_id": "5d16600e2c5c0f0037111d32"
          }
        }
      },
      "right_button": {
        "label": "Ajuda",
        "type": "button",
        "action": {
          "type": "webview",
          "property": {
            "webview": {
              "url": "https://cdn.picpay.com/apps/picpay/digital-goods/spotify-terms03.html"
            }
          }
        }
      }
    },
    "components": [
      {
        "type": "title",
        "text": "IFood"
      },
      {
        "type": "subtitle",
        "text": "ESCOLHA UM ITEM:"
      },
      {
        "type": "product_card_item",
        "items": [
          {
            "avatar": "https://lh3.googleusercontent.com/FrMp1xgQ4_QjTp7pO0QCc8T24FyZNhhONviUk886e3A53-J9iN_6aBYoEuIHasphjg",
            "spotlight": "Semana top",
            "value": "R$ 50,00",
            "description": "Plano semanal de marmitas no PicPay",
            "action": {
              "type": "payment",
              "property": {
                "payment": {
                  "store_id": "14373",
                  "description": "Spotify Premium",
                  "disclaimer": "**Importante:** Você receberá o código PIN no valor escolhido após o pagamento. O crédito não é reembolsado pelo PicPay.",
                  "value": "17.0",
                  "logo_url": "https://cdn.picpay.com/apps/picpay/digital-goods/spotify-terms03.html",
                  "info_url": "https://cdn.picpay.com/picpay/sellers/spotify-avatar.png",
                  "input_keys": []
                }
              }
            }
          },
          {
            "avatar": "https://lh3.googleusercontent.com/FrMp1xgQ4_QjTp7pO0QCc8T24FyZNhhONviUk886e3A53-J9iN_6aBYoEuIHasphjg",
            "spotlight": "Semana top",
            "value": "R$ 100,00",
            "description": "Plano semanal de marmitas no PicPay",
            "action": {
              "type": "payment",
              "property": {
                "payment": {
                  "store_id": "14373",
                  "description": "Spotify Premium",
                  "disclaimer": "**Importante:** Você receberá o código PIN no valor escolhido após o pagamento. O crédito não é reembolsado pelo PicPay.",
                  "value": "17.0",
                  "logo_url": "https://cdn.picpay.com/apps/picpay/digital-goods/spotify-terms03.html",
                  "info_url": "https://cdn.picpay.com/picpay/sellers/spotify-avatar.png",
                  "input_keys": []
                }
              }
            }
          }
        ]
      },
      {
        "type": "subtitle",
        "text": "SOBRE"
      },
      {
        "type": "markdown_text",
        "text": "<b>Produtos gostosos</b> que dão <i>vontade de comer de novo.</i> Produtos nutritivos para dar <u>aquela força extra nas suas atividades.</u> <b>Buscamos incansavelmente fornecedores para trazer os mais frescos</b> ingredientes para nossas receitas que são cuidadosamente pensadas para encontrar aquele ponto ótimo no qual sabor e saúde se encontram.<ul><li>Coffee</li><li>Tea</li><li>Milk</li></ul>"
      },
      {
        "type": "button_link",
        "label": "Saiba Mais",
        "action": {
          "type": "webview",
          "property": {
            "webview": {
              "url": "https://cdn.picpay.com/apps/picpay/digital-goods/spotify-terms03.html"
            }
          }
        }
      }
    ]
  }
}
