{
    "id":"3473788",
    "name":"Regular",
    "mobile_phone_verified":null,
    "img_url":"https://picpay-dev.s3.amazonaws.com/",
    "username":"teste.regular",
    "verified":false,
    "business_account":"0",
    "img_url_large":null,
    "bio":"",
    "tags": [ ]
}