{
    "data": {
        "P2PTransaction": {
            "id": "296150",
            "transaction_date": "2017-05-02 10:45:22",
            "total_value": "10.00",
            "consumer_value": "10.00",
            "consumer_value_payee": "10.00",
            "credit_card": "************1111 Visa",
            "surcharge": "0.00",
            "credit": "0.00",
            "expire_date": "2017-05-09 00:00:00",
            "payee_phone": "(27) 99786-4145",
            "consumer_id_payee": "202054",
            "consumer_id_payer": "366555",
            "consumer_credit_card_id": "111340",
            "return_code": "00",
            "message": "",
            "valor_parcela": "10.00",
            "quant_parcelas": "1",
            "hold_for_review": "80",
            "business_transaction": false,
            "installment_fee": "0.00",
            "transaction_date_str": "02\/05\/2017 10:45:22",
            "total_value_str": "10,00",
            "consumer_value_str": "10,00",
            "consumer_value_payee_str": "10,00",
            "surcharge_str": "0,00",
            "credit_str": "0,00",
            "expire_date_str": "09\/05\/2017 00:00:00",
            "valor_parcela_str": "10,00",
            "installment_fee_str": "0,00",
            "total_cartao_sem_juros": 10
        },
        "ConsumerPayee": {
            "id": "202054",
            "name": "Alexandre Oliveira Abreu",
            "mobile_phone_verified": "27997864145",
            "img_url": "https:\/\/picpay.s3.amazonaws.com\/profiles\/fcdb511b937355cb4a6d51039ca06376.jpg",
            "username": "alexandre",
            "verified": false,
            "business_account": "0"
        },
        "Status": {
            "name": "Aprovado",
            "id": "P",
            "name_gambi": "Pagamento em an\u00e1lise"
        },
        "cashback_details": null,
        "receipt": [
            {
                "type": "transaction",
                "id": "4503851",
                "total": "R$ 1,00",
                "date": "28\/12\/2017 11:47",
                "is_cancelled": false,
                "share": {
                    "text": "Acabei de pagar Alexandre Abreu pelo PicPay http:\/\/www.picpay.com\/app #PicPay",
                    "url": "http:\/\/www.picpay.com\/p2p\/paid?4503851"
                },
                "payee": {
                    "type": "consumer",
                    "id": "202054",
                    "name": "Alexandre Oliveira Abreu",
                    "username": "@alexandre",
                    "img_url": "https:\/\/picpay.s3.amazonaws.com\/profiles\/24232a0ab11e1eed71c39b6ac7de40fc.jpg",
                    "is_verified": false,
                    "is_pro": true
                },
                "list": [
                    {
                        "label": "Saldo utilizado",
                        "text": "R$1,00"
                    }
                ]
            },
            {
                "type": "transaction_status",
                "title": {
                    "color": "#4A4A4A",
                    "value": "Pagamento em an\u00e1lise"
                },
                "subtitle": {
                    "color": "#666666",
                    "value": "O pagamento ser\u00e1 conclu\u00eddo ap\u00f3s an\u00e1lise"
                },
                "icon": {
                    "type": "image",
                    "value": "analysis_icon"
                }
            }
        ],
        "authorized": 1,
        "is_under_review": 1,
        "receipt_text": null,
        "balance": "130.47",
        "withdraw_balance": "105.51",
        "allow_auto_clearance": 0,
        "Share": {
            "text": "Acabei de pagar Alexandre Abreu pelo PicPay http:\/\/www.picpay.com\/app #PicPay",
            "url": "http:\/\/www.picpay.com\/p2p\/paid?296150"
        }
    }
}
