{
    "data": {
        "Consumer": {
            "id": "1399738",
            "email": "novo@usuario.com",
            "name": "Novo Usuario",
            "username": "novo.usuario1",
            "username_changed": "1",
            "name_mother": null,
            "cpf": "***.***.666-38",
            "phone": null,
            "mobile_phone": null,
            "mobile_phone_verified": "29963258741",
            "img_url": null,
            "share_hash": "Y810",
            "app_version": "9.0.25",
            "register_device_os": "ios",
            "credit": "0.00",
            "kb_type": true,
            "gender": "M",
            "birth_date": "02\/02\/1988",
            "business_account": "0",
            "enable_plastic_card": "0",
            "mgm_ativo": "0",
            "mgm_credito_quem_indicou": "5",
            "mgm_credito_indicado": "5",
            "max_value_first_draw": "2000000.00",
            "balance": "0.00",
            "withdraw_balance": "0.00",
            "bypass_sms": false
        },
        "ConsumerInstagram": {
            "username": null,
            "profile_picture": null
        },
        "ConsumerCreditCard": [

        ],
        "ConsumerAddress": [

        ],
        "BankAccount": [

        ],
        "Withdrawal": [

        ],
        "Recharge": [

        ],
        "Mgm": {
            "Contacts": {
                "img_url": "http:\/\/picpay.s3.amazonaws.com\/mgm\/convidar_V2.1_humildao.png",
                "text": "Convide seus contatos",
                "shoutout": "PicPay fica melhor com seus amigos"
            },
            "Screen": {
                "share_link": "http:\/\/www.picpay.com\/convite?Y810",
                "share_text_short": "Conhe\u00e7a PicPay, a rede social de pagamentos. Baixe e crie seu perfil atrav\u00e9s do link http:\/\/www.picpay.com\/convite?!Y810 @picpayapp",
                "share_text_facebook": "App essencial em todo smartphone: PicPay. Transforme seu celular em uma carteira, envie e receba dinheiro pelo smartphone, de gra\u00e7a #picpay",
                "share_text": "Entre no PicPay, a rede social de pagamentos. Nele voc\u00ea envia e recebe dinheiro de qualquer pessoa. Meu PicPay \u00e9 @novo.usuario1. Baixe agora mesmo pelo link http:\/\/www.picpay.com\/convite?@Y810",
                "text_success": "PicPay est\u00e1 transformando a forma como as pessoas se relacionam com dinheiro e voc\u00ea faz parte desta revolu\u00e7\u00e3o.\n\nVoc\u00ea pode espalhar ainda mais esta novidade, atrav\u00e9s das op\u00e7\u00f5es abaixo:",
                "text_share_screen": "PicPay \u00e9 ainda melhor com seus amigos dentro, quanto mais pessoas usando, melhor ele fica.",
                "img_url": "http:\/\/picpay.s3.amazonaws.com\/mgm\/mgm_image.png",
                "title": "Convidar contatos",
                "text": "PicPay \u00e9 ainda melhor com seus amigos dentro, quanto mais pessoas usando, melhor ele fica.",
                "button": "Convidar amigos",
                "sendsms": 0,
                "warning": "Todos os contatos da sua agenda receber\u00e3o convites por sms e email. Confirma autoriza\u00e7\u00e3o?",
                "insist": "",
                "mgm3_title": "Espalhe o PicPay!",
                "mgm3_subtitle": "Seus amigos tamb\u00e9m ganhar\u00e3o R$ 1 para experimentar o PicPay.",
                "mgm3_completion_alert": "Obrigado por compartilhar o PicPay! Seus amigos receber\u00e3o seu convite em breve.",
                "subtitle": "Convide seus amigos"
            },
            "Profile": {
                "header": "Convide seus amigos",
                "line1": "Convidar contatos",
                "line2": "Compartilhe seu link pessoal",
                "text": "Gostou do PicPay? Convite seus amigos"
            }
        },
        "Installments": {
            "cc_interests": 3.49,
            "parcela_minima": 10,
            "max_parcelas": 12
        },
        "ConsumerLabels": [
            "hs:userblock"
        ],
        "UnderReviewAlerts": {
            "icon_title_payee": "Pagamento em an\u00e1lise",
            "icon_text_payee": "Este valor ser\u00e1 liberado em sua carteira ap\u00f3s conclus\u00e3o da an\u00e1lise",
            "more_title_payee": "Pagamento em an\u00e1lise",
            "more_text_payee": "Em alguns casos \u00e9 necess\u00e1ria verifica\u00e7\u00e3o adicional antes libera\u00e7\u00e3o do valor em sua carteira. Fique tranquilo, geralmente a conclus\u00e3o da an\u00e1lise \u00e9 bem r\u00e1pida.",
            "more_text_payee_pro": "Aguarde a libera\u00e7\u00e3o do pagamento antes de entregar o produto ou servi\u00e7o vendido. Fique tranquilo, geralmente a conclus\u00e3o da an\u00e1lise \u00e9 bem r\u00e1pida.",
            "icon_title_payer": "Pagamento em an\u00e1lise",
            "icon_text_payer": "O pagamento somente ser\u00e1 liberado na carteira do recebedor ap\u00f3s conclus\u00e3o da an\u00e1lise.",
            "more_title_payer": "Pagamento em an\u00e1lise",
            "more_text_payer": "Em alguns casos \u00e9 necess\u00e1ria verifica\u00e7\u00e3o adicional antes da libera\u00e7\u00e3o do valor pago para a carteira do usu\u00e1rio recebedor. Fique tranquilo, geralmente a conclus\u00e3o da an\u00e1lise \u00e9 bem r\u00e1pida."
        },
        "ConsumerConfig": {
            "private_profile": false,
            "enable_taxe_limits": true,
            "force_private_p2p_recieved_transaction": false,
            "push_notification_likes": true,
            "push_notification_comments": true,
            "push_notification_followers": true,
            "push_notification_payments": true,
            "email_notification_payments": true
        }
    }
}