{
    "name": "Rotativo Vitória",
    "seller_id": "6",
    "disclaimer_url": "https://www.google.com",
    "img_url": "https://picpay.s3.amazonaws.com/sellers/bda389fa486bac1aa4a12b5b134b8e4b.jpg",
    "plates": null,
    "areas": [
        {
            "id": "1",
            "name": "Centro / Vila Rubim",
            "selected": false,
            "types": [
                {
                    "type": "car",
                    "label": "Carro",
                    "fares": [
                        {
                            "minutes": "30",
                            "cents": "120",
                            "amount": "R$ 1,20"
                        },
                        {
                            "minutes": "45",
                            "cents": "150",
                            "amount": "R$ 1,50"
                        },
                        {
                            "minutes": "60",
                            "cents": "180",
                            "amount": "R$ 1,80"
                        },
                        {
                            "minutes": "75",
                            "cents": "195",
                            "amount": "R$ 1,95"
                        },
                        {
                            "minutes": "80",
                            "cents": "200",
                            "amount": "R$ 2,00"
                        },
                        {
                            "minutes": "90",
                            "cents": "210",
                            "amount": "R$ 2,10"
                        },
                        {
                            "minutes": "105",
                            "cents": "225",
                            "amount": "R$ 2,25"
                        },
                        {
                            "minutes": "120",
                            "cents": "240",
                            "amount": "R$ 2,40"
                        },
                        {
                            "minutes": "125",
                            "cents": "250",
                            "amount": "R$ 2,50"
                        },
                        {
                            "minutes": "135",
                            "cents": "268",
                            "amount": "R$ 2,68"
                        },
                        {
                            "minutes": "141",
                            "cents": "280",
                            "amount": "R$ 2,80"
                        },
                        {
                            "minutes": "150",
                            "cents": "295",
                            "amount": "R$ 2,95"
                        },
                        {
                            "minutes": "152",
                            "cents": "300",
                            "amount": "R$ 3,00"
                        },
                        {
                            "minutes": "165",
                            "cents": "323",
                            "amount": "R$ 3,23"
                        },
                        {
                            "minutes": "180",
                            "cents": "350",
                            "amount": "R$ 3,50"
                        }
                    ]
                }
            ]
        },
        {
            "id": "2",
            "name": "Bento Ferreira",
            "selected": false,
            "types": [
                {
                    "type": "car",
                    "label": "Carro",
                    "fares": [
                        {
                            "minutes": "30",
                            "cents": "120",
                            "amount": "R$ 1,20"
                        },
                        {
                            "minutes": "45",
                            "cents": "150",
                            "amount": "R$ 1,50"
                        },
                        {
                            "minutes": "60",
                            "cents": "180",
                            "amount": "R$ 1,80"
                        },
                        {
                            "minutes": "75",
                            "cents": "195",
                            "amount": "R$ 1,95"
                        },
                        {
                            "minutes": "80",
                            "cents": "200",
                            "amount": "R$ 2,00"
                        },
                        {
                            "minutes": "90",
                            "cents": "210",
                            "amount": "R$ 2,10"
                        },
                        {
                            "minutes": "105",
                            "cents": "225",
                            "amount": "R$ 2,25"
                        },
                        {
                            "minutes": "120",
                            "cents": "240",
                            "amount": "R$ 2,40"
                        },
                        {
                            "minutes": "125",
                            "cents": "250",
                            "amount": "R$ 2,50"
                        },
                        {
                            "minutes": "135",
                            "cents": "268",
                            "amount": "R$ 2,68"
                        },
                        {
                            "minutes": "141",
                            "cents": "280",
                            "amount": "R$ 2,80"
                        },
                        {
                            "minutes": "150",
                            "cents": "295",
                            "amount": "R$ 2,95"
                        },
                        {
                            "minutes": "152",
                            "cents": "300",
                            "amount": "R$ 3,00"
                        },
                        {
                            "minutes": "165",
                            "cents": "323",
                            "amount": "R$ 3,23"
                        },
                        {
                            "minutes": "180",
                            "cents": "350",
                            "amount": "R$ 3,50"
                        }
                    ]
                }
            ]
        },
        {
            "id": "3",
            "name": "Enseada do Suá",
            "selected": false,
            "types": [
                {
                    "type": "car",
                    "label": "Carro",
                    "fares": [
                        {
                            "minutes": "30",
                            "cents": "120",
                            "amount": "R$ 1,20"
                        },
                        {
                            "minutes": "45",
                            "cents": "150",
                            "amount": "R$ 1,50"
                        },
                        {
                            "minutes": "60",
                            "cents": "180",
                            "amount": "R$ 1,80"
                        },
                        {
                            "minutes": "75",
                            "cents": "195",
                            "amount": "R$ 1,95"
                        },
                        {
                            "minutes": "80",
                            "cents": "200",
                            "amount": "R$ 2,00"
                        },
                        {
                            "minutes": "90",
                            "cents": "210",
                            "amount": "R$ 2,10"
                        },
                        {
                            "minutes": "105",
                            "cents": "225",
                            "amount": "R$ 2,25"
                        },
                        {
                            "minutes": "120",
                            "cents": "240",
                            "amount": "R$ 2,40"
                        },
                        {
                            "minutes": "125",
                            "cents": "250",
                            "amount": "R$ 2,50"
                        },
                        {
                            "minutes": "135",
                            "cents": "268",
                            "amount": "R$ 2,68"
                        },
                        {
                            "minutes": "141",
                            "cents": "280",
                            "amount": "R$ 2,80"
                        },
                        {
                            "minutes": "150",
                            "cents": "295",
                            "amount": "R$ 2,95"
                        },
                        {
                            "minutes": "152",
                            "cents": "300",
                            "amount": "R$ 3,00"
                        },
                        {
                            "minutes": "165",
                            "cents": "323",
                            "amount": "R$ 3,23"
                        },
                        {
                            "minutes": "180",
                            "cents": "350",
                            "amount": "R$ 3,50"
                        }
                    ]
                }
            ]
        },
        {
            "id": "4",
            "name": "Praia do Canto",
            "selected": false,
            "types": [
                {
                    "type": "car",
                    "label": "Carro",
                    "fares": [
                        {
                            "minutes": "30",
                            "cents": "120",
                            "amount": "R$ 1,20"
                        },
                        {
                            "minutes": "45",
                            "cents": "150",
                            "amount": "R$ 1,50"
                        },
                        {
                            "minutes": "60",
                            "cents": "180",
                            "amount": "R$ 1,80"
                        },
                        {
                            "minutes": "75",
                            "cents": "195",
                            "amount": "R$ 1,95"
                        },
                        {
                            "minutes": "80",
                            "cents": "200",
                            "amount": "R$ 2,00"
                        },
                        {
                            "minutes": "90",
                            "cents": "210",
                            "amount": "R$ 2,10"
                        },
                        {
                            "minutes": "105",
                            "cents": "225",
                            "amount": "R$ 2,25"
                        },
                        {
                            "minutes": "120",
                            "cents": "240",
                            "amount": "R$ 2,40"
                        },
                        {
                            "minutes": "125",
                            "cents": "250",
                            "amount": "R$ 2,50"
                        },
                        {
                            "minutes": "135",
                            "cents": "268",
                            "amount": "R$ 2,68"
                        },
                        {
                            "minutes": "141",
                            "cents": "280",
                            "amount": "R$ 2,80"
                        },
                        {
                            "minutes": "150",
                            "cents": "295",
                            "amount": "R$ 2,95"
                        },
                        {
                            "minutes": "152",
                            "cents": "300",
                            "amount": "R$ 3,00"
                        },
                        {
                            "minutes": "165",
                            "cents": "323",
                            "amount": "R$ 3,23"
                        },
                        {
                            "minutes": "180",
                            "cents": "350",
                            "amount": "R$ 3,50"
                        }
                    ]
                }
            ]
        },
        {
            "id": "5",
            "name": "Santa Lúcia",
            "selected": false,
            "types": [
                {
                    "type": "car",
                    "label": "Carro",
                    "fares": [
                        {
                            "minutes": "30",
                            "cents": "120",
                            "amount": "R$ 1,20"
                        },
                        {
                            "minutes": "45",
                            "cents": "150",
                            "amount": "R$ 1,50"
                        },
                        {
                            "minutes": "60",
                            "cents": "180",
                            "amount": "R$ 1,80"
                        },
                        {
                            "minutes": "75",
                            "cents": "195",
                            "amount": "R$ 1,95"
                        },
                        {
                            "minutes": "80",
                            "cents": "200",
                            "amount": "R$ 2,00"
                        },
                        {
                            "minutes": "90",
                            "cents": "210",
                            "amount": "R$ 2,10"
                        },
                        {
                            "minutes": "105",
                            "cents": "225",
                            "amount": "R$ 2,25"
                        },
                        {
                            "minutes": "120",
                            "cents": "240",
                            "amount": "R$ 2,40"
                        },
                        {
                            "minutes": "125",
                            "cents": "250",
                            "amount": "R$ 2,50"
                        },
                        {
                            "minutes": "135",
                            "cents": "268",
                            "amount": "R$ 2,68"
                        },
                        {
                            "minutes": "141",
                            "cents": "280",
                            "amount": "R$ 2,80"
                        },
                        {
                            "minutes": "150",
                            "cents": "295",
                            "amount": "R$ 2,95"
                        },
                        {
                            "minutes": "152",
                            "cents": "300",
                            "amount": "R$ 3,00"
                        },
                        {
                            "minutes": "165",
                            "cents": "323",
                            "amount": "R$ 3,23"
                        },
                        {
                            "minutes": "180",
                            "cents": "350",
                            "amount": "R$ 3,50"
                        }
                    ]
                }
            ]
        }
    ]
}
