[
    {
        "key": "BAIXA ENFASE",
        "tokens": [
            {
                "parentId": 14,
                "title": "Error",
                "subtitle": "Right, Bottom & No Actions",
                "value": "low.error"
            },
            {
                "parentId": 14,
                "title": "Info",
                "subtitle": "Right, Bottom & No Actions",
                "value": "low.info"
            },
            {
                "parentId": 14,
                "title": "Success",
                "subtitle": "Right, Bottom & No Actions",
                "value": "low.success"
            },
            {
                "parentId": 14,
                "title": "Warning",
                "subtitle": "Right, Bottom & No Actions",
                "value": "low.warning"
            }
        ]
    },
    {
        "key": "ALTA ENFASE",
        "tokens": [
            {
                "parentId": 14,
                "title": "Error",
                "subtitle": "Right, Bottom & No Actions",
                "value": "high.error"
            },
            {
                "parentId": 14,
                "title": "Info",
                "subtitle": "Right, Bottom & No Actions",
                "value": "high.info"
            },
            {
                "parentId": 14,
                "title": "Success",
                "subtitle": "Right, Bottom & No Actions",
                "value": "high.success"
            },
            {
                "parentId": 14,
                "title": "Warning",
                "subtitle": "Right, Bottom & No Actions",
                "value": "high.warning"
            }
        ]
    }
]
