{
  "id" : "e132ad33-2099-34c5-8dbd-8b7dee1ac5ab",
  "request" : {
    "url" : "/profile/api/followConsumer.json",
    "method" : "POST"
  },
  "response" : {
    "status" : 200,
    "bodyFileName" : "profile/followConsumer.json",
    "headers" : {
      "Content-Type" : "text/html",
      "Date" : "Tue, 27 Jun 2017 18:39:54 GMT",
      "Server" : "nginx",
      "Connection" : "keep-alive"
    }
  },
  "uuid" : "e132ad33-2099-34c5-8dbd-8b7dee1ac5ab"
}