{
  "id" : "8f7042ba-0000-3709-9cab-7c293f261abd",
  "request" : {
    "urlPattern" : "(.*)/api/getGlobalCredit.json",
    "method" : "POST"
  },
  "response" : {
    "status" : 200,
    "bodyFileName" : "getGlobalCredit.json",
    "headers" : {
      "Access-Control-Allow-Headers" : "device_os,token",
      "Access-Control-Allow-Origin" : "*",
      "Content-Type" : "application/json; charset=UTF-8",
      "Date" : "Tue, 25 Apr 2017 16:22:19 GMT",
      "mobile_analytics_events" : "[]",
      "Server" : "nginx",
      "syncdata" : "{\"feed_refresh\":\"true\",\"contacts\":\"b351314d9b60bd24c44b19224045dc1e\",\"unseen_notifications\":\"0\",\"recharge\":\"4ac1b257ec1916d4276b135b4f7bd25e\"}",
      "Connection" : "keep-alive"
    }
  },
  "uuid" : "8f7042ba-0000-3709-9cab-7c293f261abd"
}
