{
   "data":{
      "receipt":[
         {
            "type":"transaction",
            "id":"841583",
            "total":"R$ 2,50",
            "date":"26\/03\/2019 17:10",
            "is_cancelled":true,
            "share":{
               "text":"Visitei Orange Pixel e paguei com PicPay http:\/\/www.picpay.com\/locais? #PicPay",
               "url":"http:\/\/www.picpay.com\/locais?"
            },
            "payee":{
               "type":"store",
               "id":"14338",
               "name":"Orange Pixel",
               "img_url":"https:\/\/picpay-dev.s3.sa-east-1.amazonaws.com\/sellers\/ecommerce-8c589af4557018344fa92b0945c0fb42a267ec687b5d8b22a47c38977ee92742.png"
            },
            "list":[
               {
                  "label":"Cart\u00e3o",
                  "text":"************1111 Visa"
               },
               {
                  "label":"Pagto. Cart\u00e3o",
                  "text":"R$2,50(1x 2,50)"
               },
               {
                  "label":"Cashback (dinheiro de volta)",
                  "text":"R$ 2,50"
               },
               {
                  "label":"Total pago",
                  "text":"R$ 2,50"
               }
            ]
         },
         {
            "type":"transaction_status",
            "title":{
               "color":"#ED1846",
               "value":"Pagamento cancelado"
            },
            "subtitle":{
               "color":"#666666",
               "value":"Pagamento cancelado"
            },
            "icon":{
               "type":"image",
               "value":"cancel_icon"
            }
         },
         {
            "type":"list",
            "itens":[
               {
                  "label":{
                     "color":"#000000",
                     "value":"Pedido"
                  },
                  "value":{
                     "color":"#000000",
                     "value":"vgabriel01"
                  }
               },
               {
                  "label":{
                     "color":"#000000",
                     "value":"Comprador"
                  },
                  "value":{
                     "color":"#000000",
                     "value":"Joao Gabriel Casteluber Laass"
                  }
               }
            ]
         },
         {
            "type":"label_value_centralized_item",
            "label":{
               "color":"#4A4A4A",
               "value":"Voc\u00ea comprou em Orange Pixel"
            },
            "value":{
               "color":"#4A4A4A",
               "value":"Em breve voc\u00ea receber\u00e1 um e-mail no endere\u00e7o gabriel@joaoagbriel.org com todos os detalhes do pagamento."
            }
         },
         {
            "type":"cashback",
            "title":{
               "color":"#4a4a4a",
               "value":"Seu \u00faltimo pagamento rendeu cashback."
            },
            "subtitle":{
               "color":"#666666",
               "value":"Voc\u00ea ganhou 2,50 reais para usar no PicPay com o que quiser."
            },
            "icon":{
               "type":"asset",
               "value":"congratulations_cashback"
            },
            "button":{
               "title":"Amei!",
               "color":"#11c76f",
               "action":"dismiss"
            }
         },
         {
            "type":"mgm_offer",
            "order":100,
            "img_url":"https:\/\/s3.amazonaws.com\/cdn.picpay.com\/apps\/picpay\/imgs\/mgm_receipt.png",
            "title":{
               "color":"#21c25e",
               "value":"Indique e ganhe R$10"
            },
            "button":{
               "title":"INDICAR AGORA",
               "type":"ghost",
               "action":"open_mgm",
               "action_data":{
                  "event_properties":{
                     "receipt_type":"Pav"
                  }
               }
            },
            "text":{
               "color":"#666666",
               "value":"Gostando do PicPay? Indique seus amigos e ganhe R$10 por cada indica\u00e7\u00e3o."
            }
         }
      ]
   }
}