{
    "data": {
        "receipt": [
            {
                "type": "transaction",
                "id": "4509069",
                "total": "R$ 1,00",
                "date": "10\/05\/2019 15:22",
                "is_cancelled": false,
                "share": {
                    "text": "Acabei de pagar Edu Aaa pelo PicPay http:\/\/www.picpay.com\/app #PicPay",
                    "url": "http:\/\/www.picpay.com\/p2p\/paid?4509069"
                },
                "payee": {
                    "type": "consumer",
                    "id": "7638995",
                    "name": "Edu Aaa",
                    "username": "@edu.aaa",
                    "img_url": "https:\/\/picpay-dev.s3.amazonaws.com\/profiles\/8782e17ca76f07137026c0446c591fde.jpg",
                    "is_verified": false,
                    "is_pro": false
                },
                "list": [
                    {
                        "label": "Saldo utilizado",
                        "text": "R$1,00"
                    },
                    {
                        "label": "Total pago",
                        "text": "R$ 1,00"
                    }
                ]
            },
            {
                "type": "transaction_status",
                "title": {
                    "color": "#FFBC00",
                    "value": "Pagamento em an\u00e1lise"
                },
                "subtitle": {
                    "color": "#666666",
                    "value": "O pagamento ser\u00e1 conclu\u00eddo ap\u00f3s an\u00e1lise"
                },
                "icon": {
                    "type": "asset",
                    "value": "analysis_icon"
                },
                "read_more_button": {
                    "type": "inline",
                    "title": "Saiba mais",
                    "action": "deeplink",
                    "action_data": {
                        "url": "https:\/\/app.picpay.com\/helpcenter?query="
                    }
                }
            },
            {
                "type": "mgm_offer",
                "order": 100,
                "img_url": "https:\/\/s3.amazonaws.com\/cdn.picpay.com\/apps\/picpay\/imgs\/mgm_receipt.png",
                "title": {
                    "color": "#21c25e",
                    "value": "Indique e ganhe R$10"
                },
                "button": {
                    "title": "INDICAR AGORA",
                    "type": "ghost",
                    "action": "open_mgm",
                    "action_data": {
                        "event_properties": {
                            "receipt_type": "P2p"
                        }
                    }
                },
                "text": {
                    "color": "#666666",
                    "value": "Gostando do PicPay? Indique seus amigos e ganhe R$10 por cada indica\u00e7\u00e3o."
                }
            }
        ]
    }
}
