{
    "data": {
        "success": "ok",
        "username": {
            "Consumer": {
                "id": "1399734",
                "whitelisted": false,
                "email": "luizuiteste@teste.com",
                "email_confirmed": "0",
                "email_bounced": "0",
                "email_device": null,
                "username": "luiz.henrique.guimaraes2",
                "username_changed": "1",
                "password": "$P$ByKKPZBolkNbbneFJ2MfdNVvpjRjOD\/",
                "name": "Luiz Henrique Guimaraes",
                "name_cpf": null,
                "name_mother": null,
                "name_on_device": "luizhenrique",
                "name_own_contact": null,
                "cpf": "22233366638",
                "business_account": "0",
                "business_account_since": null,
                "p2p_variable_fee": "0.00",
                "date_for_pro": null,
                "rg": null,
                "birth_date": "02\/02\/1988",
                "gender": "M",
                "phone": null,
                "mobile_phone": null,
                "mobile_phone_verified": "29965412352",
                "credit": "0.00",
                "dt_senha": "0000-00-00 00:00:00",
                "register_date": "2017-04-26 13:13:56",
                "activation_date": null,
                "pro_activation_date": null,
                "device_os": "ios",
                "register_device_os": "ios",
                "app_version": "9.0.8",
                "app_version_latest": "9.0.8",
                "img_url": null,
                "processed_images": null,
                "share_hash": "OW50",
                "parent_consumer": "0",
                "parent_consumer_p2p": null,
                "p2p_spend_limit": null,
                "p2p_spent_limit": "0.00",
                "p2p_spend_cicle_due_date": null,
                "p2p_spend_cicle_days": "30",
                "p2p_receive_limit": null,
                "kb_type": true,
                "consumer_restriction_id": "0",
                "under_review": "0",
                "created_known_device": false,
                "parentof_created_known_device": "0",
                "last_seen_notification_id": "0",
                "archived": false,
                "modelo_mgm_id": "2",
                "facebook_email": null,
                "twitter_username": null,
                "whatsapp_phone_number": null,
                "sim_number": null,
                "origin": null,
                "consumer_instagram_id": null,
                "consumer_picpay_plastic_card_id": null,
                "enable_plastic_card": "0",
                "hold_payments_received": false,
                "consumer_authenticity": null,
                "verified": false,
                "device_accounts": null,
                "device_email_accounts": null
            }
        }
    }
}