[
    {
        "key": "ALPHA",
        "tokens": [
            {
                "parentId": 4,
                "title": "None",
                "subtitle": "0.0",
                "value": "none"
            },
            {
                "parentId": 4,
                "title": "Ultra Light",
                "subtitle": "0.1",
                "value": "ultraLight"
            },
            {
                "parentId": 4,
                "title": "Light",
                "subtitle": "0.25",
                "value": "light"
            },
            {
                "parentId": 4,
                "title": "Medium",
                "subtitle": "0.5",
                "value": "medium"
            },
            {
                "parentId": 4,
                "title": "Strong",
                "subtitle": "0.75",
                "value": "strong"
            },
            {
                "parentId": 4,
                "title": "Full",
                "subtitle": "1.0",
                "value": "full"
            }
        ]
    }
]
