{
  "available_credit": 3500.0,
  "available_limit": 4000.0,
  "best_purchase_day": 15,
  "blocked_for_app_payment": false,
  "credit_status": "ACTIVE",
  "do_not_disturb": false,
  "due_day": 20,
  "offer_enabled": false,
  "offer_text": "PicPay Card ativo",
  "physical_card_enabled": true,
  "physical_card_status": "DEBIT_WAITING_ACTIVATION",
  "registration_status": "CREDIT_ACTIVATED",
  "selected_limit": 9999,
  "settings": {
    "card_settings_enabled": false,
    "card_wallet_enabled": false,
    "physical_card_configuration_enabled": false,
    "banners_enabled" : ["CARD_DEBIT_ACTIVATION"]
  },
}
