{
    "minimum_payment_text" : "R$ 3.363,22",
    "payment_line" : "21290.00119  01100.022506  00130.142664  1  00000000000000",
    "minimum_payment" : 3363.0,
    "total" : 4302.0,
    "invoice" : {
        "status" : "CLOSED",
        "payable" : false,
        "id" : "5bdb476ae3bbe50f308daf9e",
        "due_date" : "2018-09-20",
        "total_value" : 4302.0,
        "minimum_payment" : 3363.0,
        "closing_date" : "2018-09-16",
        "status_text" : "Fechada"
    },
    "due_day" : "2018-09-20",
    "installment": null
}
