{
    "transactions" : [],
    "invoice" : {
        "status" : "OPEN",
        "payable" : false,
        "id" : "5b96704e7960b60009340029",
        "due_date" : "2018-09-10",
        "total_value" : 3837.8000000000002,
        "minimum_payment" : 120,
        "closing_date" : "2018-09-09",
        "paid_value" : 120,
        "status_text" : "Aberta"
    }
}
