{
    "total" : 9035.2999999999993,
    "invoice" : {
        "received_payment" : 600,
        "total_debit" : 9000,
        "total_value" : 9035.2999999999993,
        "status" : "OPEN_PAYMENT",
        "status_text" : "Á Pagar",
        "due_date" : "2019-01-10",
        "minimum_payment" : 1000,
        "payable" : true,
        "id" : "5c3015ee8628b70008c073c4",
        "closing_date" : "2019-01-06",
        "early_payment" : 20
    },
    "due_day" : "2019-01-10",
    "installment": null,
    "payment_line" : "21290.00119 01100.022902 00200.000842 5 00000000000000",
    "minimum_payment" : 0
}
