{
    "transactions" : [
        {
            "date" : "2018-12-10",
            "processed" : true,
            "label" : {
                "value" : "Refined Wooden Cheese",
                "color" : "#000000"
            },
            "value" : {
                "value" : "R$ 786.24",
                "color" : "#000000"
            }
        },
        {
            "date" : "2018-12-10",
            "processed" : true,
            "label" : {
                "value" : "Intelligent Concrete Bike",
                "color" : "#000000"
            },
            "value" : {
                "value" : "R$ 41.25",
                "color" : "#000000"
            }
        },
        {
            "date" : "2018-12-10",
            "processed" : true,
            "label" : {
                "value" : "Generic Concrete Ball",
                "color" : "#000000"
            },
            "value" : {
                "value" : "R$ 70.92",
                "color" : "#000000"
            }
        },
        {
            "date" : "2018-12-10",
            "processed" : true,
            "label" : {
                "value" : "Unbranded Rubber Computer",
                "color" : "#000000"
            },
            "value" : {
                "value" : "R$ 982.05",
                "color" : "#000000"
            }
        },
        {
            "date" : "2018-12-10",
            "processed" : true,
            "label" : {
                "value" : "Unbranded Rubber Chair",
                "color" : "#000000"
            },
            "value" : {
                "value" : "R$ 825.50",
                "color" : "#000000"
            }
        },
        {
            "date" : "2018-12-10",
            "processed" : true,
            "label" : {
                "value" : "Incredible Metal Soap",
                "color" : "#000000"
            },
            "value" : {
                "value" : "R$ 45.10",
                "color" : "#000000"
            }
        },
        {
            "date" : "2018-12-10",
            "processed" : true,
            "label" : {
                "value" : "Unbranded Granite Cheese",
                "color" : "#000000"
            },
            "value" : {
                "value" : "R$ 976.73",
                "color" : "#000000"
            }
        },
        {
            "date" : "2018-12-10",
            "processed" : true,
            "label" : {
                "value" : "Gorgeous Fresh Hat",
                "color" : "#000000"
            },
            "value" : {
                "value" : "R$ 703.40",
                "color" : "#000000"
            }
        },
        {
            "date" : "2018-12-10",
            "processed" : true,
            "label" : {
                "value" : "Fantastic Fresh Bacon",
                "color" : "#000000"
            },
            "value" : {
                "value" : "R$ 745.51",
                "color" : "#000000"
            }
        },
        {
            "date" : "2018-12-10",
            "processed" : true,
            "label" : {
                "value" : "Incredible Wooden Mouse",
                "color" : "#000000"
            },
            "value" : {
                "value" : "R$ 125.48",
                "color" : "#000000"
            }
        },
        {
            "date" : "2018-12-10",
            "processed" : true,
            "label" : {
                "value" : "Fantastic Cotton Pizza",
                "color" : "#000000"
            },
            "value" : {
                "value" : "R$ 623.95",
                "color" : "#000000"
            }
        },
        {
            "date" : "2018-12-10",
            "processed" : true,
            "label" : {
                "value" : "Small Steel Sausages",
                "color" : "#000000"
            },
            "value" : {
                "value" : "R$ 702.47",
                "color" : "#000000"
            }
        },
        {
            "date" : "2018-12-10",
            "processed" : true,
            "label" : {
                "value" : "Rustic Plastic Cheese",
                "color" : "#000000"
            },
            "value" : {
                "value" : "R$ 37.42",
                "color" : "#000000"
            }
        },
        {
            "date" : "2018-12-10",
            "processed" : true,
            "label" : {
                "value" : "Generic Cotton Fish",
                "color" : "#000000"
            },
            "value" : {
                "value" : "R$ 812.56",
                "color" : "#000000"
            }
        },
        {
            "date" : "2018-12-10",
            "processed" : true,
            "label" : {
                "value" : "Sleek Granite Sausages",
                "color" : "#000000"
            },
            "value" : {
                "value" : "R$ 794.78",
                "color" : "#000000"
            }
        },
        {
            "date" : "2018-12-10",
            "processed" : true,
            "label" : {
                "value" : "Practical Steel Bacon",
                "color" : "#000000"
            },
            "value" : {
                "value" : "R$ 680.73",
                "color" : "#000000"
            }
        },
    ],
    "invoice" : {
        "status" : "OPEN",
        "payable" : false,
        "id" : "5b96704e7960b60009340029",
        "due_date" : "2018-09-10",
        "total_value" : null,
        "minimum_payment" : 120,
        "closing_date" : "2018-09-09",
        "paid_value" : 120,
        "status_text" : "Aberta"
    }
}
