{
    "data": {
        "feed": [
            {
                "Config": {
                    "Alert": {
                        "Type": ""
                    },
                    "Text": {
                        "Value": ""
                    },
                    "Title": {
                        "Value": "<b><lnk href='{\"action\": \"openProfile\", \"id\": 3209}'>@victor<\/lnk><\/b> esteve em <b><lnk href='{\"action\": \"openSellerProfile\", \"id\": 989}'>Xuleba Dos Brother<\/lnk><\/b>"
                    },
                    "Image": {
                        "Url": "https:\/\/picpay-dev.s3.amazonaws.com\/profiles\/2568099a7a5f28b5b7495369b85bb835.jpg",
                        "Action": {
                            "Type": "openProfile",
                            "Data": "3209"
                        }
                    },
                    "TimeAgo": {
                        "Text": {
                            "Value": "5 dias atr\u00e1s"
                        },
                        "Icon": {
                            "Type": "friends",
                            "Color": "#bbbbbb"
                        }
                    },
                    "Liked": {
                        "Checked": false,
                        "Num": 0
                    },
                    "Comments": {
                        "Num": 0
                    }
                },
                "Type": "PavFeedItem",
                "UIComponent": "DefaultFeedItem",
                "Data": "513960"
            },
            {
                "Config": {
                    "Alert": {
                        "Type": ""
                    },
                    "Text": {
                        "Value": ""
                    },
                    "Title": {
                        "Value": "<b><lnk href='{\"action\": \"openProfile\", \"id\": 3209}'>@victor<\/lnk><\/b> esteve em <b><lnk href='{\"action\": \"openSellerProfile\", \"id\": 989}'>Xuleba Dos Brother<\/lnk><\/b>"
                    },
                    "Image": {
                        "Url": "https:\/\/picpay-dev.s3.amazonaws.com\/profiles\/2568099a7a5f28b5b7495369b85bb835.jpg",
                        "Action": {
                            "Type": "openProfile",
                            "Data": "3209"
                        }
                    },
                    "TimeAgo": {
                        "Text": {
                            "Value": "5 dias atr\u00e1s"
                        },
                        "Icon": {
                            "Type": "friends",
                            "Color": "#bbbbbb"
                        }
                    },
                    "Liked": {
                        "Checked": false,
                        "Num": 0
                    },
                    "Comments": {
                        "Num": 0
                    }
                },
                "Type": "PavFeedItem",
                "UIComponent": "DefaultFeedItem",
                "Data": "513959"
            },
            {
                "Config": {
                    "Alert": {
                        "Type": ""
                    },
                    "Text": {
                        "Value": ""
                    },
                    "Title": {
                        "Value": "<b><lnk href='{\"action\": \"openProfile\", \"id\": 3209}'>@victor<\/lnk><\/b> esteve em <b><lnk href='{\"action\": \"openSellerProfile\", \"id\": 989}'>Xuleba Dos Brother<\/lnk><\/b>"
                    },
                    "Image": {
                        "Url": "https:\/\/picpay-dev.s3.amazonaws.com\/profiles\/2568099a7a5f28b5b7495369b85bb835.jpg",
                        "Action": {
                            "Type": "openProfile",
                            "Data": "3209"
                        }
                    },
                    "TimeAgo": {
                        "Text": {
                            "Value": "5 dias atr\u00e1s"
                        },
                        "Icon": {
                            "Type": "friends",
                            "Color": "#bbbbbb"
                        }
                    },
                    "Liked": {
                        "Checked": false,
                        "Num": 0
                    },
                    "Comments": {
                        "Num": 0
                    }
                },
                "Type": "PavFeedItem",
                "UIComponent": "DefaultFeedItem",
                "Data": "513958"
            },
            {
                "Config": {
                    "Alert": {
                        "Type": ""
                    },
                    "Text": {
                        "Value": ""
                    },
                    "Title": {
                        "Value": "<b><lnk href='{\"action\": \"openProfile\", \"id\": 3209}'>@victor<\/lnk><\/b> esteve em <b><lnk href='{\"action\": \"openSellerProfile\", \"id\": 989}'>Xuleba Dos Brother<\/lnk><\/b>"
                    },
                    "Image": {
                        "Url": "https:\/\/picpay-dev.s3.amazonaws.com\/profiles\/2568099a7a5f28b5b7495369b85bb835.jpg",
                        "Action": {
                            "Type": "openProfile",
                            "Data": "3209"
                        }
                    },
                    "TimeAgo": {
                        "Text": {
                            "Value": "5 dias atr\u00e1s"
                        },
                        "Icon": {
                            "Type": "friends",
                            "Color": "#bbbbbb"
                        }
                    },
                    "Liked": {
                        "Checked": false,
                        "Num": 0
                    },
                    "Comments": {
                        "Num": 0
                    }
                },
                "Type": "PavFeedItem",
                "UIComponent": "DefaultFeedItem",
                "Data": "513957"
            },
            {
                "Config": {
                    "Alert": {
                        "Type": ""
                    },
                    "Text": {
                        "Value": ""
                    },
                    "Title": {
                        "Value": "<b><lnk href='{\"action\": \"openProfile\", \"id\": 3209}'>@victor<\/lnk><\/b> esteve em <b><lnk href='{\"action\": \"openSellerProfile\", \"id\": 989}'>Xuleba Dos Brother<\/lnk><\/b>"
                    },
                    "Image": {
                        "Url": "https:\/\/picpay-dev.s3.amazonaws.com\/profiles\/2568099a7a5f28b5b7495369b85bb835.jpg",
                        "Action": {
                            "Type": "openProfile",
                            "Data": "3209"
                        }
                    },
                    "TimeAgo": {
                        "Text": {
                            "Value": "5 dias atr\u00e1s"
                        },
                        "Icon": {
                            "Type": "friends",
                            "Color": "#bbbbbb"
                        }
                    },
                    "Liked": {
                        "Checked": false,
                        "Num": 0
                    },
                    "Comments": {
                        "Num": 0
                    }
                },
                "Type": "PavFeedItem",
                "UIComponent": "DefaultFeedItem",
                "Data": "513956"
            },
            {
                "Config": {
                    "Alert": {
                        "Type": ""
                    },
                    "Text": {
                        "Value": ""
                    },
                    "Title": {
                        "Value": "<b><lnk href='{\"action\": \"openProfile\", \"id\": 3209}'>@victor<\/lnk><\/b> esteve em <b><lnk href='{\"action\": \"openSellerProfile\", \"id\": 989}'>Xuleba Dos Brother<\/lnk><\/b>"
                    },
                    "Image": {
                        "Url": "https:\/\/picpay-dev.s3.amazonaws.com\/profiles\/2568099a7a5f28b5b7495369b85bb835.jpg",
                        "Action": {
                            "Type": "openProfile",
                            "Data": "3209"
                        }
                    },
                    "TimeAgo": {
                        "Text": {
                            "Value": "5 dias atr\u00e1s"
                        },
                        "Icon": {
                            "Type": "friends",
                            "Color": "#bbbbbb"
                        }
                    },
                    "Liked": {
                        "Checked": false,
                        "Num": 0
                    },
                    "Comments": {
                        "Num": 0
                    }
                },
                "Type": "PavFeedItem",
                "UIComponent": "DefaultFeedItem",
                "Data": "513955"
            },
            {
                "Config": {
                    "Alert": {
                        "Type": ""
                    },
                    "Text": {
                        "Value": ""
                    },
                    "Title": {
                        "Value": "<b><lnk href='{\"action\": \"openProfile\", \"id\": 3209}'>@victor<\/lnk><\/b> esteve em <b><lnk href='{\"action\": \"openSellerProfile\", \"id\": 989}'>Xuleba Dos Brother<\/lnk><\/b>"
                    },
                    "Image": {
                        "Url": "https:\/\/picpay-dev.s3.amazonaws.com\/profiles\/2568099a7a5f28b5b7495369b85bb835.jpg",
                        "Action": {
                            "Type": "openProfile",
                            "Data": "3209"
                        }
                    },
                    "TimeAgo": {
                        "Text": {
                            "Value": "5 dias atr\u00e1s"
                        },
                        "Icon": {
                            "Type": "friends",
                            "Color": "#bbbbbb"
                        }
                    },
                    "Liked": {
                        "Checked": false,
                        "Num": 0
                    },
                    "Comments": {
                        "Num": 0
                    }
                },
                "Type": "PavFeedItem",
                "UIComponent": "DefaultFeedItem",
                "Data": "513947"
            },
            {
                "Config": {
                    "Alert": {
                        "Type": ""
                    },
                    "Text": {
                        "Value": ""
                    },
                    "Title": {
                        "Value": "<b><lnk href='{\"action\": \"openProfile\", \"id\": 3209}'>@victor<\/lnk><\/b> esteve em <b><lnk href='{\"action\": \"openSellerProfile\", \"id\": 989}'>Xuleba Dos Brother<\/lnk><\/b>"
                    },
                    "Image": {
                        "Url": "https:\/\/picpay-dev.s3.amazonaws.com\/profiles\/2568099a7a5f28b5b7495369b85bb835.jpg",
                        "Action": {
                            "Type": "openProfile",
                            "Data": "3209"
                        }
                    },
                    "TimeAgo": {
                        "Text": {
                            "Value": "5 dias atr\u00e1s"
                        },
                        "Icon": {
                            "Type": "friends",
                            "Color": "#bbbbbb"
                        }
                    },
                    "Liked": {
                        "Checked": false,
                        "Num": 0
                    },
                    "Comments": {
                        "Num": 0
                    }
                },
                "Type": "PavFeedItem",
                "UIComponent": "DefaultFeedItem",
                "Data": "513946"
            },
            {
                "Config": {
                    "Alert": {
                        "Type": ""
                    },
                    "Title": {
                        "Value": "<b><lnk href='{\"action\": \"openProfile\", \"id\": 3209}'>@victor<\/lnk><\/b> pagou a <b><lnk href='{\"action\": \"openProfile\", \"id\": 202054}'>@alexandre<\/lnk><\/b>"
                    },
                    "Text": {
                        "Value": "",
                        "Style": "comment"
                    },
                    "Image": {
                        "Action": {
                            "Type": "openProfile",
                            "Data": "3209"
                        },
                        "Url": "https:\/\/picpay-dev.s3.amazonaws.com\/profiles-processed-images\/2568099a7a5f28b5b7495369b85bb835.200.jpg",
                        "Icon": "pro"
                    },
                    "TimeAgo": {
                        "Text": {
                            "Value": "6 dias atr\u00e1s"
                        },
                        "Icon": {
                            "Type": "friends",
                            "Color": "#bbbbbb"
                        }
                    },
                    "Liked": {
                        "Checked": false,
                        "Num": 0
                    },
                    "Comments": {
                        "Num": 0
                    }
                },
                "Type": "P2pFeedItem",
                "UIComponent": "DefaultFeedItem",
                "Data": "513943"
            },
            {
                "Config": {
                    "Alert": {
                        "Type": ""
                    },
                    "Text": {
                        "Value": ""
                    },
                    "Title": {
                        "Value": "<b><lnk href='{\"action\": \"openProfile\", \"id\": 3209}'>@victor<\/lnk><\/b> estacionou em <b><lnk href='{\"action\": \"openSellerProfile\", \"id\": 475}'>Rotativo Vit\u00f3ria<\/lnk><\/b>"
                    },
                    "Image": {
                        "Url": "https:\/\/picpay-dev.s3.amazonaws.com\/profiles\/2568099a7a5f28b5b7495369b85bb835.jpg",
                        "Action": {
                            "Type": "openProfile",
                            "Data": "3209"
                        }
                    },
                    "TimeAgo": {
                        "Text": {
                            "Value": "6 dias atr\u00e1s"
                        },
                        "Icon": {
                            "Type": "friends",
                            "Color": "#bbbbbb"
                        }
                    },
                    "Liked": {
                        "Checked": false,
                        "Num": 0
                    },
                    "Comments": {
                        "Num": 0
                    }
                },
                "Type": "PavFeedItem",
                "UIComponent": "DefaultFeedItem",
                "Data": "513940"
            },
            {
                "Config": {
                    "Alert": {
                        "Type": ""
                    },
                    "Text": {
                        "Value": ""
                    },
                    "Title": {
                        "Value": "<b>Voc\u00ea<\/b> esteve em <b><lnk href='{\"action\": \"openSellerProfile\", \"id\": 300}'>Esp\u00edrito Cacau<\/lnk><\/b>"
                    },
                    "Image": {
                        "Url": "https:\/\/picpay.s3.amazonaws.com\/sellers\/d2939c790817b53d0aa4be797416711d.jpg",
                        "Action": {
                            "Type": "openSellerProfile",
                            "Data": "300"
                        }
                    },
                    "MoneyLabel": {
                        "Value": "<font color='#FF5075'><b>R$ 0,01<\/b><\/font>"
                    },
                    "TimeAgo": {
                        "Text": {
                            "Value": "7 dias atr\u00e1s"
                        },
                        "Icon": {
                            "Type": "friends",
                            "Color": "#bbbbbb"
                        }
                    },
                    "Liked": {
                        "Checked": false,
                        "Num": 0
                    },
                    "Comments": {
                        "Num": 0
                    }
                },
                "Type": "PavFeedItem",
                "UIComponent": "DefaultFeedItem",
                "Data": "513932",
                "Actions": [
                    {
                        "Label": "Ver recibo",
                        "Type": "pav_receipt",
                        "Data": {
                            "Id": "230070"
                        }
                    },
                    {
                        "Label": "Tornar privado",
                        "Type": "make_private",
                        "Data": {
                            "Id": "513932"
                        }
                    }
                ]
            },
            {
                "Config": {
                    "Alert": {
                        "Type": ""
                    },
                    "Text": {
                        "Value": ""
                    },
                    "Title": {
                        "Value": "<b>Voc\u00ea<\/b> esteve em <b><lnk href='{\"action\": \"openSellerProfile\", \"id\": 300}'>Esp\u00edrito Cacau<\/lnk><\/b>"
                    },
                    "Image": {
                        "Url": "https:\/\/picpay.s3.amazonaws.com\/sellers\/d2939c790817b53d0aa4be797416711d.jpg",
                        "Action": {
                            "Type": "openSellerProfile",
                            "Data": "300"
                        }
                    },
                    "MoneyLabel": {
                        "Value": "<font color='#FF5075'><b>R$ 0,01<\/b><\/font>"
                    },
                    "TimeAgo": {
                        "Text": {
                            "Value": "7 dias atr\u00e1s"
                        },
                        "Icon": {
                            "Type": "friends",
                            "Color": "#bbbbbb"
                        }
                    },
                    "Liked": {
                        "Checked": false,
                        "Num": 0
                    },
                    "Comments": {
                        "Num": 0
                    }
                },
                "Type": "PavFeedItem",
                "UIComponent": "DefaultFeedItem",
                "Data": "513931",
                "Actions": [
                    {
                        "Label": "Ver recibo",
                        "Type": "pav_receipt",
                        "Data": {
                            "Id": "230069"
                        }
                    },
                    {
                        "Label": "Tornar privado",
                        "Type": "make_private",
                        "Data": {
                            "Id": "513931"
                        }
                    }
                ]
            },
            {
                "Config": {
                    "Alert": {
                        "Type": ""
                    },
                    "Text": {
                        "Value": ""
                    },
                    "Title": {
                        "Value": "<b>Voc\u00ea<\/b> esteve em <b><lnk href='{\"action\": \"openSellerProfile\", \"id\": 300}'>Esp\u00edrito Cacau<\/lnk><\/b>"
                    },
                    "Image": {
                        "Url": "https:\/\/picpay.s3.amazonaws.com\/sellers\/d2939c790817b53d0aa4be797416711d.jpg",
                        "Action": {
                            "Type": "openSellerProfile",
                            "Data": "300"
                        }
                    },
                    "MoneyLabel": {
                        "Value": "<font color='#FF5075'><b>R$ 0,01<\/b><\/font>"
                    },
                    "TimeAgo": {
                        "Text": {
                            "Value": "7 dias atr\u00e1s"
                        },
                        "Icon": {
                            "Type": "friends",
                            "Color": "#bbbbbb"
                        }
                    },
                    "Liked": {
                        "Checked": false,
                        "Num": 0
                    },
                    "Comments": {
                        "Num": 0
                    }
                },
                "Type": "PavFeedItem",
                "UIComponent": "DefaultFeedItem",
                "Data": "513924",
                "Actions": [
                    {
                        "Label": "Ver recibo",
                        "Type": "pav_receipt",
                        "Data": {
                            "Id": "230051"
                        }
                    },
                    {
                        "Label": "Tornar privado",
                        "Type": "make_private",
                        "Data": {
                            "Id": "513924"
                        }
                    }
                ]
            },
            {
                "Config": {
                    "Alert": {
                        "Type": ""
                    },
                    "Text": {
                        "Value": ""
                    },
                    "Title": {
                        "Value": "<b>Voc\u00ea<\/b> esteve em <b><lnk href='{\"action\": \"openSellerProfile\", \"id\": 300}'>Esp\u00edrito Cacau<\/lnk><\/b>"
                    },
                    "Image": {
                        "Url": "https:\/\/picpay.s3.amazonaws.com\/sellers\/d2939c790817b53d0aa4be797416711d.jpg",
                        "Action": {
                            "Type": "openSellerProfile",
                            "Data": "300"
                        }
                    },
                    "MoneyLabel": {
                        "Value": "<font color='#FF5075'><b>R$ 0,01<\/b><\/font>"
                    },
                    "TimeAgo": {
                        "Text": {
                            "Value": "7 dias atr\u00e1s"
                        },
                        "Icon": {
                            "Type": "friends",
                            "Color": "#bbbbbb"
                        }
                    },
                    "Liked": {
                        "Checked": false,
                        "Num": 0
                    },
                    "Comments": {
                        "Num": 0
                    }
                },
                "Type": "PavFeedItem",
                "UIComponent": "DefaultFeedItem",
                "Data": "513923",
                "Actions": [
                    {
                        "Label": "Ver recibo",
                        "Type": "pav_receipt",
                        "Data": {
                            "Id": "230050"
                        }
                    },
                    {
                        "Label": "Tornar privado",
                        "Type": "make_private",
                        "Data": {
                            "Id": "513923"
                        }
                    }
                ]
            },
            {
                "Config": {
                    "Alert": {
                        "Type": ""
                    },
                    "Text": {
                        "Value": ""
                    },
                    "Title": {
                        "Value": "<b>Voc\u00ea<\/b> esteve em <b><lnk href='{\"action\": \"openSellerProfile\", \"id\": 300}'>Esp\u00edrito Cacau<\/lnk><\/b>"
                    },
                    "Image": {
                        "Url": "https:\/\/picpay.s3.amazonaws.com\/sellers\/d2939c790817b53d0aa4be797416711d.jpg",
                        "Action": {
                            "Type": "openSellerProfile",
                            "Data": "300"
                        }
                    },
                    "MoneyLabel": {
                        "Value": "<font color='#FF5075'><b>R$ 0,01<\/b><\/font>"
                    },
                    "TimeAgo": {
                        "Text": {
                            "Value": "7 dias atr\u00e1s"
                        },
                        "Icon": {
                            "Type": "friends",
                            "Color": "#bbbbbb"
                        }
                    },
                    "Liked": {
                        "Checked": false,
                        "Num": 0
                    },
                    "Comments": {
                        "Num": 0
                    }
                },
                "Type": "PavFeedItem",
                "UIComponent": "DefaultFeedItem",
                "Data": "513922",
                "Actions": [
                    {
                        "Label": "Ver recibo",
                        "Type": "pav_receipt",
                        "Data": {
                            "Id": "230049"
                        }
                    },
                    {
                        "Label": "Tornar privado",
                        "Type": "make_private",
                        "Data": {
                            "Id": "513922"
                        }
                    }
                ]
            }
        ],
        "next": true,
        "document_request": false
    }
}