{
    "data": [
        {
            "Store": {
                "id": "462",
                "seller_id": "580",
                "name": "i-nov",
                "cep": "15400-000",
                "state": "SP",
                "address": "RUA DA CAVALHADA, 588-A, JD. S\u00c3O FRANCISO DE ASSIS, Ol\u00edmpia",
                "number": "",
                "city": "Ol\u00edmpia",
                "district": "JD. S\u00c3O FRANCISO DE ASSIS",
                "email": "",
                "phones": "",
                "website": "",
                "working_hours": "",
                "img_url": "",
                "show_in_app": "1",
                "searchable": "1",
                "description": "",
                "accept_delivery_payment": "",
                "phones_delivery": "",
                "is_parking": "0",
                "pinned": "",
                "pinned_radius": "0",
                "large_store_img": "",
                "consumer_balance": "0",
                "lat": "-20.727955510539715",
                "lng": "-48.90736988039549",
                "distance": "10051603.927826764"
            },
            "Seller": {
                "id": "580",
                "name": "i-nov",
                "img_url": "https:\/\/picpay.s3.amazonaws.com\/sellers\/c7679bc9df955637e23bcf9f466bef2d.jpg"
            }
        },
        {
            "Store": {
                "id": "774",
                "seller_id": "951",
                "name": "Leo Dolci - P\u00e7a Panamericana",
                "cep": "05461-000",
                "state": "SP",
                "address": "Pra\u00e7a Pan-Americana, 40, Alto de Pinheiros, S\u00e3o Paulo",
                "number": "",
                "city": "S\u00e3o Paulo",
                "district": "Alto de Pinheiros",
                "email": "",
                "phones": "",
                "website": "",
                "working_hours": "",
                "img_url": "",
                "show_in_app": "1",
                "searchable": "",
                "description": "",
                "accept_delivery_payment": "",
                "phones_delivery": "",
                "is_parking": "0",
                "pinned": "",
                "pinned_radius": "0",
                "large_store_img": "",
                "consumer_balance": "0",
                "lat": "-22.9317327",
                "lng": "-47.0635853",
                "distance": "10355333.045504065"
            },
            "Seller": {
                "id": "951",
                "name": "Leo Dolci - P\u00e7a Pan",
                "img_url": "https:\/\/picpay.s3.amazonaws.com\/sellers\/81634e67cac056b1276bcb55fcd6b5fe.jpg"
            }
        },
        {
            "Store": {
                "id": "513",
                "seller_id": "726",
                "name": "Juliette - Tambor\u00e9",
                "cep": "06460-030",
                "state": "SP",
                "address": "Avenida Piracema, Tambor\u00e9, Barueri",
                "number": "",
                "city": "Barueri",
                "district": "Tambor\u00e9",
                "email": "",
                "phones": "",
                "website": "",
                "working_hours": "",
                "img_url": "",
                "show_in_app": "1",
                "searchable": "1",
                "description": "",
                "accept_delivery_payment": "1",
                "phones_delivery": "",
                "is_parking": "0",
                "pinned": "",
                "pinned_radius": "0",
                "large_store_img": "",
                "consumer_balance": "0",
                "lat": "-23.504190599884332",
                "lng": "-46.834401692343135",
                "distance": "10414175.035439307"
            },
            "Seller": {
                "id": "726",
                "name": "Juliette - Tambor\u00e9",
                "img_url": "https:\/\/picpay.s3.amazonaws.com\/sellers\/94c19eb1403623bbbfadbc1d71c905c9.jpg"
            }
        },
        {
            "Store": {
                "id": "302",
                "seller_id": "397",
                "name": "IL Barista - Banco Original",
                "cep": "05465-070",
                "state": "SP",
                "address": "Avenida General Furtado Nascimento, 66, Alto de Pinheiros, S\u00e3o Paulo",
                "number": "",
                "city": "S\u00e3o Paulo",
                "district": "Alto de Pinheiros",
                "email": "",
                "phones": "",
                "website": "http:\/\/www.ilbarista.com.br",
                "working_hours": "Segunda a Sexta das 08:00 \u00e0s 19:00",
                "img_url": "https:\/\/picpay.s3.amazonaws.com\/stores\/079dc72ea62d8f5115928a442292af42.jpg",
                "show_in_app": "1",
                "searchable": "1",
                "description": "Considerados um dos melhores Specialty Coffees do Brasil, com uma equipe formada por baristas certificados e com v\u00e1rias participa\u00e7\u00f5es em Campeonatos de Caf\u00e9 e de Latte Art. Com diversos pr\u00eamios e indica\u00e7\u00f5es, como a de melhores do ano pela Revista Veja SP, durante 09 anos consecutivos.\r\n\r\nSeja bem-vindo ;)",
                "accept_delivery_payment": "",
                "phones_delivery": "",
                "is_parking": "0",
                "pinned": "",
                "pinned_radius": "0",
                "large_store_img": "https:\/\/picpay.s3.amazonaws.com\/stores\/079dc72ea62d8f5115928a442292af42.jpg",
                "consumer_balance": "0",
                "lat": "-23.555975197919366",
                "lng": "-46.71403691349184",
                "distance": "10427282.760705644",
                "working_hours_parsed": [
                    {
                        "days": "Segunda a Sexta",
                        "hours": "08:00 \u00e0s 19:00"
                    }
                ]
            },
            "Seller": {
                "id": "397",
                "name": "IL Barista Original",
                "img_url": "https:\/\/picpay.s3.amazonaws.com\/sellers\/43861368c9ec0b1094caa61bd912d4e1.jpg"
            }
        },
        {
            "Store": {
                "id": "303",
                "seller_id": "396",
                "name": "IL Barista - Faria Lima",
                "cep": "01450-010",
                "state": "SP",
                "address": "Rua Gr\u00e9cia, 530, Jardim Europa, S\u00e3o Paulo",
                "number": "",
                "city": "S\u00e3o Paulo",
                "district": "Jardim Europa",
                "email": "",
                "phones": "",
                "website": "http:\/\/www.ilbarista.com.br\/sobre\/missao-e-valores\/",
                "working_hours": "",
                "img_url": "https:\/\/picpay.s3.amazonaws.com\/stores\/ed437b4cc4c3b97f74dd96a7a8003579.jpg",
                "show_in_app": "1",
                "searchable": "1",
                "description": "Considerados um dos melhores Specialty Coffees do Brasil, com uma equipe formada por baristas certificados e com v\u00e1rias participa\u00e7\u00f5es em Campeonatos de Caf\u00e9 e de Latte Art. Com diversos pr\u00eamios e indica\u00e7\u00f5es, como a de melhores do ano pela Revista Veja SP, durante 09 anos consecutivos.\r\n\r\nSeja bem-vindo ;)",
                "accept_delivery_payment": "",
                "phones_delivery": "",
                "is_parking": "0",
                "pinned": "",
                "pinned_radius": "0",
                "large_store_img": "https:\/\/picpay.s3.amazonaws.com\/stores\/ed437b4cc4c3b97f74dd96a7a8003579.jpg",
                "consumer_balance": "0",
                "lat": "-23.57549821820092",
                "lng": "-46.687717172174814",
                "distance": "10430733.245157154"
            },
            "Seller": {
                "id": "396",
                "name": "IL Barista Faria L.",
                "img_url": "https:\/\/picpay.s3.amazonaws.com\/sellers\/f1d46569f0e0513058feaf901a5a4e28.jpg"
            }
        },
        {
            "Store": {
                "id": "319",
                "seller_id": "413",
                "name": "Il Barista - Casa Do Saber Itaim",
                "cep": "01453-011",
                "state": "SP",
                "address": "Rua Doutor M\u00e1rio Ferraz, Jardim Paulistano, S\u00e3o Paulo",
                "number": "",
                "city": "S\u00e3o Paulo",
                "district": "Jardim Paulistano",
                "email": "",
                "phones": "",
                "website": "",
                "working_hours": "",
                "img_url": "https:\/\/picpay.s3.amazonaws.com\/stores\/0e91809dc0d4fcfeea43f44732790cec.jpg",
                "show_in_app": "1",
                "searchable": "1",
                "description": "",
                "accept_delivery_payment": "",
                "phones_delivery": "",
                "is_parking": "0",
                "pinned": "",
                "pinned_radius": "0",
                "large_store_img": "https:\/\/picpay.s3.amazonaws.com\/stores\/0e91809dc0d4fcfeea43f44732790cec.jpg",
                "consumer_balance": "0",
                "lat": "-23.584230919843083",
                "lng": "-46.685944981545276",
                "distance": "10431494.25805541"
            },
            "Seller": {
                "id": "413",
                "name": "IL Barista Itaim",
                "img_url": "https:\/\/picpay.s3.amazonaws.com\/sellers\/95c612229084e5214c18e98b03c58cbe.jpg"
            }
        },
        {
            "Store": {
                "id": "511",
                "seller_id": "678",
                "name": "Manai - Augusta",
                "cep": "01305-100",
                "state": "SP",
                "address": "Rua Augusta, 1605, Consola\u00e7\u00e3o, S\u00e3o Paulo",
                "number": "",
                "city": "S\u00e3o Paulo",
                "district": "Consola\u00e7\u00e3o",
                "email": "",
                "phones": "",
                "website": "",
                "working_hours": "",
                "img_url": "",
                "show_in_app": "1",
                "searchable": "1",
                "description": "",
                "accept_delivery_payment": "",
                "phones_delivery": "",
                "is_parking": "0",
                "pinned": "",
                "pinned_radius": "0",
                "large_store_img": "",
                "consumer_balance": "0",
                "lat": "-23.55748037435189",
                "lng": "-46.659431875532505",
                "distance": "10431662.180490643"
            },
            "Seller": {
                "id": "678",
                "name": "Manai - Augusta",
                "img_url": "https:\/\/picpay.s3.amazonaws.com\/sellers\/2c95b2f6d301d411d10e10815ee69b19.jpg"
            }
        },
        {
            "Store": {
                "id": "317",
                "seller_id": "411",
                "name": "IL Barista - Shopping Vila Ol\u00edmpia",
                "cep": "04551-000",
                "state": "SP",
                "address": "Rua Olimp\u00edadas, Vila Ol\u00edmpia, S\u00e3o Paulo",
                "number": "",
                "city": "S\u00e3o Paulo",
                "district": "Vila Ol\u00edmpia",
                "email": "",
                "phones": "",
                "website": "",
                "working_hours": "",
                "img_url": "https:\/\/picpay.s3.amazonaws.com\/stores\/1c0d814b2b3598335314d83d95f41708.jpg",
                "show_in_app": "1",
                "searchable": "1",
                "description": "",
                "accept_delivery_payment": "",
                "phones_delivery": "",
                "is_parking": "0",
                "pinned": "",
                "pinned_radius": "0",
                "large_store_img": "https:\/\/picpay.s3.amazonaws.com\/stores\/1c0d814b2b3598335314d83d95f41708.jpg",
                "consumer_balance": "0",
                "lat": "-23.595658102427436",
                "lng": "-46.68691988678586",
                "distance": "10432232.411121925"
            },
            "Seller": {
                "id": "411",
                "name": "IL Barista V Olimpi",
                "img_url": "https:\/\/picpay.s3.amazonaws.com\/sellers\/f5d32d4e61a364e794702a67e5b3cca1.jpg"
            }
        },
        {
            "Store": {
                "id": "514",
                "seller_id": "730",
                "name": "Manai - Brooklin Novo",
                "cep": "04571-090",
                "state": "SP",
                "address": "Rua Sans\u00e3o Alves dos Santos, 315, Cidade Mon\u00e7\u00f5es, S\u00e3o Paulo",
                "number": "",
                "city": "S\u00e3o Paulo",
                "district": "Cidade Mon\u00e7\u00f5es",
                "email": "",
                "phones": "",
                "website": "",
                "working_hours": "",
                "img_url": "",
                "show_in_app": "1",
                "searchable": "1",
                "description": "",
                "accept_delivery_payment": "",
                "phones_delivery": "",
                "is_parking": "0",
                "pinned": "",
                "pinned_radius": "0",
                "large_store_img": "",
                "consumer_balance": "0",
                "lat": "-23.604356619285376",
                "lng": "-46.69463669629516",
                "distance": "10432248.814928105"
            },
            "Seller": {
                "id": "730",
                "name": "Manai - Brooklin",
                "img_url": "https:\/\/picpay.s3.amazonaws.com\/sellers\/9562654b2515dceba448c7509251670b.jpg"
            }
        },
        {
            "Store": {
                "id": "318",
                "seller_id": "412",
                "name": "IL Barista - Morumbi Shopping",
                "cep": "04707-000",
                "state": "SP",
                "address": "Avenida Roque Petroni J\u00fanior, Jardim das Ac\u00e1cias, S\u00e3o Paulo",
                "number": "",
                "city": "S\u00e3o Paulo",
                "district": "Jardim das Ac\u00e1cias",
                "email": "",
                "phones": "",
                "website": "",
                "working_hours": "",
                "img_url": "https:\/\/picpay.s3.amazonaws.com\/stores\/e7050a0939116a025528f4e88e26b460.jpg",
                "show_in_app": "1",
                "searchable": "1",
                "description": "",
                "accept_delivery_payment": "",
                "phones_delivery": "",
                "is_parking": "0",
                "pinned": "",
                "pinned_radius": "0",
                "large_store_img": "https:\/\/picpay.s3.amazonaws.com\/stores\/e7050a0939116a025528f4e88e26b460.jpg",
                "consumer_balance": "0",
                "lat": "-23.623648501290496",
                "lng": "-46.698910939386735",
                "distance": "10433289.554314934"
            },
            "Seller": {
                "id": "412",
                "name": "IL Barista Morumbi ",
                "img_url": "https:\/\/picpay.s3.amazonaws.com\/sellers\/323b4ec1c7cd7245bfa4709d34b23caf.jpg"
            }
        },
        {
            "Store": {
                "id": "391",
                "seller_id": "500",
                "name": "Swift Moema - Juruc\u00ea",
                "cep": "04080-012",
                "state": "SP",
                "address": "Avenida Juruc\u00ea, 616, Indian\u00f3polis, S\u00e3o Paulo",
                "number": "",
                "city": "S\u00e3o Paulo",
                "district": "Indian\u00f3polis",
                "email": "",
                "phones": "",
                "website": "",
                "working_hours": "",
                "img_url": "",
                "show_in_app": "1",
                "searchable": "1",
                "description": "",
                "accept_delivery_payment": "1",
                "phones_delivery": "",
                "is_parking": "0",
                "pinned": "",
                "pinned_radius": "0",
                "large_store_img": "",
                "consumer_balance": "0",
                "lat": "-23.61009959226669",
                "lng": "-46.660481529360936",
                "distance": "10435329.483298495"
            },
            "Seller": {
                "id": "500",
                "name": "Swift Moema Juruc\u00ea",
                "img_url": "https:\/\/picpay.s3.amazonaws.com\/sellers\/6a9a478be1621588bbbc7f8812ccfb4a.jpg"
            }
        },
        {
            "Store": {
                "id": "314",
                "seller_id": "408",
                "name": "Rockaf\u00e9 ESPM - Gradua\u00e7\u00e3o",
                "cep": "04018-010",
                "state": "SP",
                "address": "Rua Doutor \u00c1lvaro Alvim, Vila Mariana, S\u00e3o Paulo",
                "number": "",
                "city": "S\u00e3o Paulo",
                "district": "Vila Mariana",
                "email": "",
                "phones": "",
                "website": "http:\/\/www.rockafe.com.br",
                "working_hours": "",
                "img_url": "https:\/\/picpay.s3.amazonaws.com\/stores\/074721a4830d620673bd0c023bd3f9d6.jpg",
                "show_in_app": "1",
                "searchable": "1",
                "description": "",
                "accept_delivery_payment": "",
                "phones_delivery": "",
                "is_parking": "0",
                "pinned": "",
                "pinned_radius": "0",
                "large_store_img": "https:\/\/picpay.s3.amazonaws.com\/stores\/074721a4830d620673bd0c023bd3f9d6.jpg",
                "consumer_balance": "0",
                "lat": "-23.5896098",
                "lng": "-46.64028400000001",
                "distance": "10435449.629704189"
            },
            "Seller": {
                "id": "408",
                "name": "Rockaf\u00e9 ESPM Grad",
                "img_url": "https:\/\/picpay.s3.amazonaws.com\/sellers\/508fcb82d9df149deda89fc0b33f25f3.jpg"
            }
        },
        {
            "Store": {
                "id": "315",
                "seller_id": "409",
                "name": "Rockaf\u00e9 ESPM - Professores",
                "cep": "04018-010",
                "state": "SP",
                "address": "Rua Doutor \u00c1lvaro Alvim, Vila Mariana, S\u00e3o Paulo",
                "number": "",
                "city": "S\u00e3o Paulo",
                "district": "Vila Mariana",
                "email": "",
                "phones": "",
                "website": "http:\/\/www.rockafe.com.br",
                "working_hours": "",
                "img_url": "https:\/\/picpay.s3.amazonaws.com\/stores\/20ab472de52d3f3cec6b8a490e9fa4bd.jpg",
                "show_in_app": "1",
                "searchable": "1",
                "description": "",
                "accept_delivery_payment": "",
                "phones_delivery": "",
                "is_parking": "0",
                "pinned": "",
                "pinned_radius": "0",
                "large_store_img": "https:\/\/picpay.s3.amazonaws.com\/stores\/20ab472de52d3f3cec6b8a490e9fa4bd.jpg",
                "consumer_balance": "0",
                "lat": "-23.5896098",
                "lng": "-46.64028400000001",
                "distance": "10435449.629704189"
            },
            "Seller": {
                "id": "409",
                "name": "Rockaf\u00e9 ESPM Prof",
                "img_url": "https:\/\/picpay.s3.amazonaws.com\/sellers\/c74b2444bdf441e53625f29ffc003a87.jpg"
            }
        },
        {
            "Store": {
                "id": "415",
                "seller_id": "547",
                "name": "PUMP-TECH",
                "cep": "11707-280",
                "state": "SP",
                "address": "Rua Marqu\u00eas de Herval, 357, Jardim Real, Praia Grande",
                "number": "",
                "city": "Praia Grande",
                "district": "Jardim Real",
                "email": "",
                "phones": "",
                "website": "",
                "working_hours": "",
                "img_url": "",
                "show_in_app": "1",
                "searchable": "1",
                "description": "",
                "accept_delivery_payment": "",
                "phones_delivery": "",
                "is_parking": "0",
                "pinned": "",
                "pinned_radius": "0",
                "large_store_img": "",
                "consumer_balance": "0",
                "lat": "-24.057161",
                "lng": "-46.545948399999986",
                "distance": "10476110.21766361"
            },
            "Seller": {
                "id": "547",
                "name": "Pump-Tech",
                "img_url": "https:\/\/picpay.s3.amazonaws.com\/sellers\/8a47a40c34f687accc971855abb29cd0.jpg"
            }
        },
        {
            "Store": {
                "id": "322",
                "seller_id": "417",
                "name": "Cruz Vermelha - #ajudeMariana",
                "cep": "20230-130",
                "state": "RJ",
                "address": "Pra\u00e7a Cruz Vermelha, 10, Centro, Rio de Janeiro",
                "number": "",
                "city": "Rio de Janeiro",
                "district": "Centro",
                "email": "",
                "phones": "",
                "website": "",
                "working_hours": "",
                "img_url": "",
                "show_in_app": "",
                "searchable": "1",
                "description": "",
                "accept_delivery_payment": "1",
                "phones_delivery": "",
                "is_parking": "0",
                "pinned": "",
                "pinned_radius": "0",
                "large_store_img": "",
                "consumer_balance": "0",
                "lat": "-22.911546910103095",
                "lng": "-43.18803238518069",
                "distance": "10660813.366252355"
            },
            "Seller": {
                "id": "417",
                "name": "Cruz Vermelha",
                "img_url": "https:\/\/picpay.s3.amazonaws.com\/sellers\/20a5452c02797778f4e8bad6bae9c581.jpg"
            }
        },
        {
            "Store": {
                "id": "324",
                "seller_id": "420",
                "name": "BT Fresh - Jardim Bot\u00e2nico",
                "cep": "22470-201",
                "state": "RJ",
                "address": "Rua Maria Ang\u00e9lica, 145, Lagoa, Rio de Janeiro",
                "number": "",
                "city": "Rio de Janeiro",
                "district": "Lagoa",
                "email": "",
                "phones": "",
                "website": "",
                "working_hours": "",
                "img_url": "",
                "show_in_app": "1",
                "searchable": "1",
                "description": "",
                "accept_delivery_payment": "1",
                "phones_delivery": "",
                "is_parking": "0",
                "pinned": "",
                "pinned_radius": "0",
                "large_store_img": "",
                "consumer_balance": "0",
                "lat": "-22.9607294",
                "lng": "-43.20794139999998",
                "distance": "10662641.52135623"
            },
            "Seller": {
                "id": "420",
                "name": "BT Fresh - Jardim B",
                "img_url": "https:\/\/picpay.s3.amazonaws.com\/sellers\/ad8f6df2033846d762eefe41f26e2f15.jpg"
            }
        },
        {
            "Store": {
                "id": "351",
                "seller_id": "474",
                "name": "BT Fresh - Gen Urquiza",
                "cep": "22431-040",
                "state": "RJ",
                "address": "Rua General Urquiza, 102, Leblon, Rio de Janeiro",
                "number": "",
                "city": "Rio de Janeiro",
                "district": "Leblon",
                "email": "",
                "phones": "",
                "website": "",
                "working_hours": "",
                "img_url": "",
                "show_in_app": "1",
                "searchable": "1",
                "description": "",
                "accept_delivery_payment": "1",
                "phones_delivery": "",
                "is_parking": "0",
                "pinned": "",
                "pinned_radius": "0",
                "large_store_img": "",
                "consumer_balance": "0",
                "lat": "-22.98414228145998",
                "lng": "-43.2240971607132",
                "distance": "10662978.580556445"
            },
            "Seller": {
                "id": "474",
                "name": "BT Fresh - Gen Urqu",
                "img_url": "https:\/\/picpay.s3.amazonaws.com\/sellers\/dd4ef81306badec41a0c9677e055be63.jpg"
            }
        },
        {
            "Store": {
                "id": "348",
                "seller_id": "475",
                "name": "Rotativo Vit\u00f3ria",
                "cep": "29010-360",
                "state": "ES",
                "address": "Estacionamento p\u00fablico da cidade",
                "number": "",
                "city": "Vit\u00f3ria",
                "district": "Centro",
                "email": "",
                "phones": "",
                "website": "",
                "working_hours": "",
                "img_url": "",
                "show_in_app": "1",
                "searchable": "",
                "description": "Estacionamento vixpark parqu\u00edmetro rotativo",
                "accept_delivery_payment": "",
                "phones_delivery": "",
                "is_parking": "1",
                "pinned": "1",
                "pinned_radius": "2000",
                "large_store_img": "",
                "consumer_balance": "0",
                "lat": "-20.318109957162715",
                "lng": "-40.33758617252198",
                "distance": "10712909.721038442"
            },
            "Seller": {
                "id": "475",
                "name": "Rotativo Vit\u00f3ria",
                "img_url": "https:\/\/picpay.s3.amazonaws.com\/sellers\/bda389fa486bac1aa4a12b5b134b8e4b.jpg"
            }
        },
        {
            "Store": {
                "id": "464",
                "seller_id": "613",
                "name": "Salladas - Centro",
                "cep": "29010-390",
                "state": "ES",
                "address": "Rua Bar\u00e3o de Monjardim, Centro, Vit\u00f3ria",
                "number": "",
                "city": "Vit\u00f3ria",
                "district": "Centro",
                "email": "",
                "phones": "",
                "website": "",
                "working_hours": "",
                "img_url": "",
                "show_in_app": "1",
                "searchable": "1",
                "description": "",
                "accept_delivery_payment": "",
                "phones_delivery": "",
                "is_parking": "0",
                "pinned": "",
                "pinned_radius": "0",
                "large_store_img": "",
                "consumer_balance": "0",
                "lat": "-20.31899493039055",
                "lng": "-40.328432038691744",
                "distance": "10713722.151365038"
            },
            "Seller": {
                "id": "613",
                "name": "Salladas - Centro",
                "img_url": "https:\/\/picpay.s3.amazonaws.com\/sellers\/8b276f5679922c9ca4a5190416eae3d1.jpg"
            }
        },
        {
            "Store": {
                "id": "13",
                "seller_id": "97",
                "name": "Banana's Chopperia - Jardim Camburi",
                "cep": "29090-060",
                "state": "ES",
                "address": "Rua Carlos Martins,1601, loja 01, Shopping Outdoor, Jardim Camburi, Vit\u00f3ria",
                "number": "",
                "city": "Vit\u00f3ria",
                "district": "Jardim Camburi",
                "email": "bananasjc@bananaschopperia.com.br",
                "phones": "(27) 30226651",
                "website": "www.bananaschopperia.com.br",
                "working_hours": "Segunda a S\u00e1bado das 11:00 \u00e0s 01:00",
                "img_url": "https:\/\/picpay.s3.amazonaws.com\/stores\/c6ec9227809a606673ef94c69af95b71.jpg?1367249444",
                "show_in_app": "1",
                "searchable": "",
                "description": "Para aqueles que curtem um bom chopp gelado, lugar aconchegante e comida variada.",
                "accept_delivery_payment": "",
                "phones_delivery": "",
                "is_parking": "0",
                "pinned": "",
                "pinned_radius": "0",
                "large_store_img": "https:\/\/picpay.s3.amazonaws.com\/stores\/c6ec9227809a606673ef94c69af95b71.jpg?1367249444",
                "consumer_balance": "0",
                "lat": "-20.251829991663623",
                "lng": "-40.26989292579498",
                "distance": "10713929.795691812",
                "working_hours_parsed": [
                    {
                        "days": "Segunda a S\u00e1bado",
                        "hours": "11:00 \u00e0s 01:00"
                    }
                ],
                "phones_parsed": [
                    "(027) 30226651"
                ]
            },
            "Seller": {
                "id": "97",
                "name": "Banana's J.Camburi",
                "img_url": "https:\/\/picpay.s3.amazonaws.com\/sellers\/46eaaf7097a1009ad96753fa6e2a732b.jpg"
            }
        },
        {
            "Store": {
                "id": "34",
                "seller_id": "110",
                "name": "Rufage Self-Service & Buffet",
                "cep": "29057-550",
                "state": "ES",
                "address": "Av. N. Sra. da Penha, 1366, Barro Vermelho, Vit\u00f3ria",
                "number": "",
                "city": "Vit\u00f3ria",
                "district": "Barro Vermelho",
                "email": "contato@rufage.com.br",
                "phones": "(27) 30240404",
                "website": "www.rufage.com.br",
                "working_hours": "Segunda a Sexta das 11:00 \u00e0s 14:30;Domingo das 11:30 \u00e0s 15:00",
                "img_url": "https:\/\/picpay.s3.amazonaws.com\/stores\/febc8f1d72ef52b8f3c0878b621de715.jpg?1369423001",
                "show_in_app": "1",
                "searchable": "",
                "description": "Restaurante self-service com melhores op\u00e7\u00f5es em carnes e qualidade de atendimento. Venha conferir!",
                "accept_delivery_payment": "",
                "phones_delivery": "",
                "is_parking": "0",
                "pinned": "",
                "pinned_radius": "0",
                "large_store_img": "https:\/\/picpay.s3.amazonaws.com\/stores\/febc8f1d72ef52b8f3c0878b621de715.jpg?1369423001",
                "consumer_balance": "0",
                "lat": "-20.2993249",
                "lng": "-40.2993343",
                "distance": "10714764.490175776",
                "working_hours_parsed": [
                    {
                        "days": "Segunda a Sexta",
                        "hours": "11:00 \u00e0s 14:30"
                    },
                    {
                        "days": "Domingo",
                        "hours": "11:30 \u00e0s 15:00"
                    }
                ],
                "phones_parsed": [
                    "(027) 30240404"
                ]
            },
            "Seller": {
                "id": "110",
                "name": "Rufage",
                "img_url": "https:\/\/picpay.s3.amazonaws.com\/sellers\/b6cdb570393e0a4f57f10c6ef4cb23b1.jpg"
            }
        },
        {
            "Store": {
                "id": "129",
                "seller_id": "214",
                "name": "Spetacollo - Santa L\u00facia",
                "cep": "29056-235",
                "state": "ES",
                "address": "Rua Eug\u00eanio Netto, 695, Santa L\u00facia, Vit\u00f3ria",
                "number": "",
                "city": "Vit\u00f3ria",
                "district": "Santa L\u00facia",
                "email": "",
                "phones": "(27) 33144732",
                "website": "www.spetacollo.com.br",
                "working_hours": "Todos os dias das 11:30 \u00e0s 23:30",
                "img_url": "https:\/\/picpay.s3.amazonaws.com\/stores\/aecb89b29da9d5c9458de57357f1566b.jpg?1378905668",
                "show_in_app": "1",
                "searchable": "",
                "description": "Atendimento marcante e cria\u00e7\u00e3o de pratos exclusivos, sempre focado na condi\u00e7\u00e3o de proporcionar a seus clientes \u00f3timas op\u00e7\u00f5es, instala\u00e7\u00f5es e inova\u00e7\u00f5es a pre\u00e7os spetacollares! Venha conferir!",
                "accept_delivery_payment": "",
                "phones_delivery": "",
                "is_parking": "0",
                "pinned": "",
                "pinned_radius": "0",
                "large_store_img": "https:\/\/picpay.s3.amazonaws.com\/stores\/aecb89b29da9d5c9458de57357f1566b.jpg?1378905668",
                "consumer_balance": "0",
                "lat": "-20.3021782",
                "lng": "-40.29917330000001",
                "distance": "10714973.186536532",
                "working_hours_parsed": [
                    {
                        "days": "Todos os dias",
                        "hours": "11:30 \u00e0s 23:30"
                    }
                ],
                "phones_parsed": [
                    "(027) 33144732"
                ]
            },
            "Seller": {
                "id": "214",
                "name": "Spetacollo S.L\u00facia",
                "img_url": "https:\/\/picpay.s3.amazonaws.com\/sellers\/64ba27f20300f68f1168e19a0ff99d09.jpg"
            }
        },
        {
            "Store": {
                "id": "738",
                "seller_id": "916",
                "name": "Clinov - Cl\u00ednica Odontol\u00f3gica de Vit\u00f3ria",
                "cep": "29055-180",
                "state": "ES",
                "address": "Avenida Saturnino de Brito, Praia do Canto, Vit\u00f3ria",
                "number": "",
                "city": "Vit\u00f3ria",
                "district": "Praia do Canto",
                "email": "",
                "phones": "",
                "website": "",
                "working_hours": "",
                "img_url": "",
                "show_in_app": "1",
                "searchable": "",
                "description": "",
                "accept_delivery_payment": "",
                "phones_delivery": "",
                "is_parking": "0",
                "pinned": "",
                "pinned_radius": "0",
                "large_store_img": "",
                "consumer_balance": "0",
                "lat": "-20.29731098959712",
                "lng": "-40.29100430356584",
                "distance": "10715310.808337271"
            },
            "Seller": {
                "id": "916",
                "name": "Clinov",
                "img_url": "https:\/\/picpay.s3.amazonaws.com\/sellers\/2a3f9e8f26e7caed1cce5244d83a8035.jpg"
            }
        },
        {
            "Store": {
                "id": "782",
                "seller_id": "961",
                "name": "Rede Marcela - Posto Escola",
                "cep": "29050-463",
                "state": "ES",
                "address": "Avenida Am\u00e9rico Buaiz, 1285, Enseada do Su\u00e1, Vit\u00f3ria",
                "number": "",
                "city": "Vit\u00f3ria",
                "district": "Enseada do Su\u00e1",
                "email": "",
                "phones": "",
                "website": "",
                "working_hours": "",
                "img_url": "",
                "show_in_app": "1",
                "searchable": "",
                "description": "",
                "accept_delivery_payment": "",
                "phones_delivery": "",
                "is_parking": "0",
                "pinned": "",
                "pinned_radius": "0",
                "large_store_img": "",
                "consumer_balance": "0",
                "lat": "-20.30439489131361",
                "lng": "-40.29207636224896",
                "distance": "10715708.015495561"
            },
            "Seller": {
                "id": "961",
                "name": "Rede Marcela-P Esco",
                "img_url": "https:\/\/picpay.s3.amazonaws.com\/sellers\/53b9e3944a70d2dd4f08d758480d5b8a.jpg"
            }
        },
        {
            "Store": {
                "id": "297",
                "seller_id": "390",
                "name": "Cantina do Bacco - Shopping Vit\u00f3ria",
                "cep": "29050-912",
                "state": "ES",
                "address": "Avenida Am\u00e9rico Buaiz, 200, Enseada do Su\u00e1, Vit\u00f3ria",
                "number": "",
                "city": "Vit\u00f3ria",
                "district": "Enseada do Su\u00e1",
                "email": "",
                "phones": "(27) 31372057",
                "website": "www.cantinadobacco.com.br",
                "working_hours": "Segunda a S\u00e1bado das 10:00 \u00e0s 22:00;S\u00e1bado e Domingo das 15:00 \u00e0s 21:00",
                "img_url": "https:\/\/picpay.s3.amazonaws.com\/stores\/baf56ab29aaffc653f3e7b9a05c645cb.jpg",
                "show_in_app": "1",
                "searchable": "1",
                "description": "A adega \u00e9 um dos grandes destaques da Cantina do Bacco Shopping Vit\u00f3ria, restaurante especializado na culin\u00e1ria italiana. O espa\u00e7o tem mais de 300 r\u00f3tulos que podem acompanhar massas, risotos e frutos do mar.",
                "accept_delivery_payment": "",
                "phones_delivery": "",
                "is_parking": "0",
                "pinned": "",
                "pinned_radius": "0",
                "large_store_img": "https:\/\/picpay.s3.amazonaws.com\/stores\/baf56ab29aaffc653f3e7b9a05c645cb.jpg",
                "consumer_balance": "0",
                "lat": "-20.31328891655541",
                "lng": "-40.288742448032394",
                "distance": "10716591.13525849",
                "working_hours_parsed": [
                    {
                        "days": "Segunda a S\u00e1bado",
                        "hours": "10:00 \u00e0s 22:00"
                    },
                    {
                        "days": "S\u00e1bado e Domingo",
                        "hours": "15:00 \u00e0s 21:00"
                    }
                ],
                "phones_parsed": [
                    "(027) 31372057"
                ]
            },
            "Seller": {
                "id": "390",
                "name": "Cantina do Bacco SV",
                "img_url": "https:\/\/picpay.s3.amazonaws.com\/sellers\/337e18de58692dac4a319e0e13a016f1.jpg"
            }
        }
    ],
    "Parameters": {
        "payment_from_explore_enabled": true
    }
}