{
  "id" : "f98b61c7-41fb-3419-abdf-bee76b14e90f",
  "request" : {
    "url" : "/p2p_payment/api/ackP2PTransaction.json",
    "method" : "POST",
    "bodyPatterns" : [ {
      "equalToJson" : "{\"p2ptransaction_id\":\"296149\"}",
      "ignoreArrayOrder" : true,
      "ignoreExtraElements" : true
    } ]
  },
  "response" : {
    "status" : 200,
    "bodyFileName" : "p2p_payment/ackP2PTransaction.json",
    "headers" : {
      "Access-Control-Allow-Headers" : "device_os,token",
      "Access-Control-Allow-Origin" : "*",
      "Content-Type" : "application/json; charset=UTF-8",
      "Date" : "Thu, 27 Apr 2017 17:54:07 GMT",
      "mobile_analytics_events" : "[]",
      "Server" : "nginx",
      "syncdata" : "{\"feed_refresh\":\"true\",\"contacts\":\"b351314d9b60bd24c44b19224045dc1e\",\"unseen_notifications\":\"2\",\"recharge\":\"4ac1b257ec1916d4276b135b4f7bd25e\"}",
      "Connection" : "keep-alive"
    }
  },
  "uuid" : "f98b61c7-41fb-3419-abdf-bee76b14e90f"
}
