{
   "id":1338,
   "description_pt":"Este pagamento excede seu limite mensal de R$ 800 mensais para transa\u00e7\u00f5es entre contas pessoais via cart\u00e3o de cr\u00e9dito. Ao continuar, uma taxa ser\u00e1 adicionada sobre o valor excedido.",
   "data":{
      "surcharge":{
         "amount_exceeded":702,
         "surcharge":13.9698,
         "variable_fee":2,
         "total_value":1513.9698,
         "variable_fee_str":"1.99"
      }
   }
}
