{
    "status": "available",
    "limit": {
        "available_withdrawal_value": 1500.00,
        "withdrawal_limit_info": "O saque pode ser feito de segunda a sexta e tem um limite de R$1.500 por dia."
    }
}
