[
    {
        "type": "bank",
       "title": "Transferência para conta bancária",
       "description": "Disponível em até 2 dias úteis",
       "additional_description": null,
       "status": "pending",
       "status_description": null
    },
    {
       "type": "cef",
       "title": "Saque em lotéricas",
       "description": "Retire dinheiro em qualquer casa lotérica do Brasil",
       "additional_description": null,
       "status": "pending",
       "status_description": null
    },
    {
       "type": "original",
       "title": "Depósito direto Banco Original",
       "description": "Disponível em até 1 hora dentro do horário comercial",
       "additional_description": "Correntistas Original têm esta e outras vantagens no PicPay. Toque e saiba mais.",
       "status": "available",
       "status_description": null
    }
]
