{
    "data" : {
        "AntiFraudChecklist" : [
            {
                "double_sided" : 0,
                "id" : "111828",
                "camera_only" : "0",
                "frontal_camera" : "0",
                "title" : "Comprovante de endereço",
                "description" : "Foto de comprovante de endereço em seu nome, parente de 1o grau ou cônjuge. Serão aceitos: Conta de água,energia,telefonia,carta de banco,ipva,iptu",
                "attachment_type" : "address",
                "uploaded" : "false"
            },
            {
                "double_sided" : 1,
                "id" : "111829",
                "camera_only" : "0",
                "frontal_camera" : "0",
                "title" : "Seu documento com foto",
                "description" : "Foto do seu documento de identificação, fora de capa plástica. (Preferencialmente CNH)",
                "attachment_type" : "id_photo",
                "uploaded" : "true"
            },
            {
                "double_sided" : 0,
                "id" : "111830",
                "camera_only" : "1",
                "frontal_camera" : "1",
                "title" : "Sua selfie (autorretrato)",
                "description" : "Tire uma foto sua (selfie) segurando o seu documento de identificação.",
                "attachment_type" : "selfie",
                "uploaded" : "false"
            },
            {
                "double_sided" : 0,
                "id" : "111831",
                "camera_only" : "0",
                "frontal_camera" : "0",
                "title" : "Foto da fatura do cartão",
                "description" : "Tire uma foto da fatura do cartão de final ************1111",
                "attachment_type" : "credit_card_bill",
                "uploaded" : "false"
            },
            {
                "double_sided" : 1,
                "id" : "111832",
                "camera_only" : "0",
                "frontal_camera" : "0",
                "title" : "Foto do documento do titular do cartão",
                "description" : "Tire uma foto do documento do titular do cartão de final ************1111",
                "attachment_type" : "credit_card_owner_id_photo",
                "uploaded" : "false"
            },
            {
                "double_sided" : 0,
                "id" : "111833",
                "camera_only" : "0",
                "frontal_camera" : "0",
                "title" : "Foto da fatura do cartão",
                "description" : "Tire uma foto da fatura do cartão de final ************1111",
                "attachment_type" : "credit_card_bill",
                "uploaded" : "false"
            },
            {
                "double_sided" : 1,
                "id" : "111834",
                "camera_only" : "0",
                "frontal_camera" : "0",
                "title" : "Foto do documento do titular do cartão",
                "description" : "Tire uma foto do documento do titular do cartão de final ************1111",
                "attachment_type" : "credit_card_owner_id_photo",
                "uploaded" : "false"
            }
        ]
    }
}
