[
    {
      "street": "Al Doutor",
      "number": 9,
      "complement": "Casa",
      "neighborhood": "Centro",
      "state": "PR",
      "city": "Curitiba",
      "type": "RESIDENTIAL",
      "nick": null,
      "zip_code": "13200-000"
    }
]
