{
   "borrower":{
      "name":"Joao Victor Venturim Lana Tayar",
      "user_name":"joao",
      "document":"05890395718",
      "address":"Av. Talma r ribeiro, 123 - 123 - xablau - SERRA - ES -  CEP: 29175842",
      "email":"contato@joaovictor.info"
   },
   "contract":{
      "issue_date":"2020-09-25",
      "issue_city":"SERRA",
      "issue_uf":"ES",
      "comission_amount":40,
      "first_dead_line":"2020-11-05",
      "pay_day":5,
      "installments":3,
      "total_requested_amount":1050.12,
      "requested_amount":1000,
      "borrower_installments_amount":358.37,
      "total_interest":1075.11,
      "month_rate":1,
      "year_rate":12.68,
      "month_cet":3.15,
      "year_cet":45.87,
      "iof":10.12,
      "periodicity":"monthly",
      "finnancial_fine":2,
      "finnancial_safe":0,
      "default_interest":1,
   },
   "attachments":{
      "a":{
         "value":1050.12,
         "percent":0
      },
      "b":{
         "value":1000,
         "percent":0.95
      },
      "c":{
         "value":50.12,
         "percent":0.05
      },
      "c1":{
         "value":40,
         "percent":0.04
      },
      "c2":{
         "value":10.12,
         "percent":0.01
      },
      "c3":{
         "value":0,
         "percent":0
      },
      "c4":{
         "value":0,
         "percent":0
      }
   }
}
