{
    "home_address": {
        "zip_code": "05317020",
        "address_complement": null,
        "city": "São Paulo",
        "city_id": "9",
        "neighborhood": null,
        "state": "SP",
        "state_id": "1",
        "street_name": "Rua",
        "street_number": "291",
        "street_type": "Av.",
        "street": "Manuel Bandeira"
    }
}
