{
   "transaction_id":"842900",
   "receipt":[
      {
         "type":"transaction",
         "id":"842900",
         "total":"R$ 1,80",
         "date":"07\/10\/2019 13:55",
         "is_cancelled":false,
         "share":{
            "text":"Visitei Rotativo Vit\u00f3ria e paguei com PicPay http:\/\/www.picpay.com\/locais?348 #PicPay",
            "url":"http:\/\/www.picpay.com\/locais?348"
         },
         "payee":{
            "type":"store",
            "id":"475",
            "name":"Rotativo Vit\u00f3ria",
            "img_url":"https:\/\/picpay.s3.amazonaws.com\/sellers\/bda389fa486bac1aa4a12b5b134b8e4b.jpg"
         },
         "list":[
            {
               "label":"Saldo utilizado",
               "text":"R$1,80"
            },
            {
               "label":"Total pago",
               "text":"R$ 1,80"
            }
         ]
      },
      {
         "type":"expiry_at",
         "title":{
            "color":"#4A4A4A",
            "value":"V\u00e1lido at\u00e9"
         },
         "text":"Placa: OIO3M33",
         "date":"07\/10 \u00e0s 14:55",
         "datetime":1570470912
      },
      {
         "type":"mgm_offer",
         "order":100,
         "img_url":"https:\/\/s3.amazonaws.com\/cdn.picpay.com\/apps\/picpay\/imgs\/mgm_receipt.png",
         "title":{
            "color":"#21c25e",
            "value":"Indique e ganhe R$10"
         },
         "button":{
            "title":"INDICAR AGORA",
            "type":"ghost",
            "action":"open_mgm",
            "action_data":{
               "event_properties":{
                  "receipt_type":"Pav"
               }
            }
         },
         "text":{
            "color":"#666666",
            "value":"Gostando do PicPay? Indique seus amigos e ganhe R$10 por cada indica\u00e7\u00e3o."
         }
      }
   ]
}
