{
    "data": {
        "consumer_status_follower": "3",
        "follower_status_consumer": "2",
        "profile": {
            "id": "4734536",
            "name": "Dev Picpay",
            "mobile_phone_verified": "29999991123",
            "img_url": null,
            "username": "dev001",
            "verified": false,
            "business_account": "0",
            "img_url_large": null,
            "bio": "",
            "tags": [

            ]
        },
        "counts": {
            "following": 0,
            "followers": 0
        },
        "can_see": true
    }
}