{
    "card_wallet_enabled": true,
    "card_settings_enabled": true,
    "card_credit_settings_enabled": true,
    "physical_card_configuration_enabled": true,
    "physical_card_tracking_enabled": true,
    "physical_card_block_enabled": true,
    "app_payment_enabled": true,
    "invoice_payment_enabled": true,
    "upgrade_debit_to_credit_flow": true,
    "banners_enabled": ["CARD_DEBIT_ACTIVATION"]
}
