{
  "day": "2020-06-15",
  "description": "Recebimento de vendas",
  "id": "97",
  "status": "finished",
  "title": "Recebimento de vendas",
  "type_item": "input",
  "type_transaction": "sales_recipe",
  "movement_code_id": 339,
  "value": 1.1
}
