{
  "id" : "fcb458f4-60d8-3cca-9e4e-726089bc59b1",
  "request" : {
    "url" : "/feed_generic_action/api/getAllConsumerData.json",
    "method" : "POST"
  },
  "response" : {
    "status" : 200,
    "bodyFileName" : "feed_generic_action/getAllConsumerData.json",
    "headers" : {
      "Access-Control-Allow-Headers" : "device_os,token",
      "Access-Control-Allow-Origin" : "*",
      "Content-Type" : "application/json; charset=UTF-8",
      "Date" : "Mon, 21 Aug 2017 18:48:54 GMT",
      "mobile_analytics_events" : "[]",
      "Server" : "nginx",
      "syncdata" : "{\"feed_refresh\":\"true\",\"unseen_notifications\":\"0\",\"recharge\":\"\"}",
      "Connection" : "keep-alive"
    }
  },
  "uuid" : "fcb458f4-60d8-3cca-9e4e-726089bc59b1"
}
