{
    "data": {
        "installments": [
            0,
            5.15,
            4.32,
            3.84,
            3.5,
            3.27,
            3.09,
            2.96,
            2.85,
            2.77,
            2.68,
            2.62
        ]
    }
}
