{
  "id" : "a617c0ef-0c93-32cd-96b4-98d9b92ff696",
  "request" : {
    "url" : "/first_payment_p2p/api/getAllConsumerData.json",
    "method" : "POST"
  },
  "response" : {
    "status" : 200,
    "bodyFileName" : "first_payment_p2p/getAllConsumerData.json",
    "headers" : {
      "Access-Control-Allow-Headers" : "device_os,token",
      "Access-Control-Allow-Origin" : "*",
      "Content-Type" : "application/json; charset=UTF-8",
      "Date" : "Fri, 28 Apr 2017 13:39:08 GMT",
      "mobile_analytics_events" : "[]",
      "Server" : "nginx",
      "syncdata" : "{\"contacts\":\"b351314d9b60bd24c44b19224045dc1e\",\"recharge\":\"\"}",
      "Connection" : "keep-alive"
    }
  },
  "uuid" : "a617c0ef-0c93-32cd-96b4-98d9b92ff696"
}
