{
  "id" : "1f67b368-d107-3384-be31-fe8eb57df036",
  "request" : {
    "url" : "/group_follower_request/api/clearUnseenNotifications.json",
    "method" : "POST"
  },
  "response" : {
    "status" : 200,
    "bodyFileName" : "group_follower_request/clearUnseenNotifications.json",
    "headers" : {
      "Access-Control-Allow-Headers" : "device_os,token",
      "Access-Control-Allow-Origin" : "*",
      "Content-Type" : "application/json; charset=UTF-8",
      "Date" : "Fri, 04 Aug 2017 17:17:25 GMT",
      "mobile_analytics_events" : "[]",
      "Server" : "nginx",
      "syncdata" : "{\"unseen_notifications\":\"0\",\"recharge\":\"\"}",
      "Connection" : "keep-alive"
    }
  },
  "uuid" : "1f67b368-d107-3384-be31-fe8eb57df036"
}
