{
  "id" : "c8d03616-4740-38a5-a75c-0e8a8f9ea63d",
  "request" : {
    "url" : "/group_follower_request/api/getAllConsumerData.json",
    "method" : "POST"
  },
  "response" : {
    "status" : 200,
    "bodyFileName" : "group_follower_request/getAllConsumerData.json",
    "headers" : {
      "Access-Control-Allow-Headers" : "device_os,token",
      "Access-Control-Allow-Origin" : "*",
      "Content-Type" : "application/json; charset=UTF-8",
      "Date" : "Fri, 04 Aug 2017 17:13:46 GMT",
      "mobile_analytics_events" : "[]",
      "Server" : "nginx",
      "syncdata" : "{\"unseen_notifications\":\"0\",\"recharge\":\"\"}",
      "Connection" : "keep-alive"
    }
  },
  "uuid" : "c8d03616-4740-38a5-a75c-0e8a8f9ea63d"
}
