{
  "account_balance_limit" : null,
  "target_status" : null,
  "update_date" : "2020-01-31T17:00:10.000+0000",
  "address_id" : null,
  "situation" : "ACTIVATED",
  "custom_limit" : null,
  "activation_date" : null,
  "income_range" : null,
  "keep_limit_after_upgrade" : false,
  "has_jud_block" : false,
  "card_bacen" : "NONE",
  "register_status" : "ACTIVATED",
  "status" : "LIMITED",
  "account_agency" : 1,
  "last_status_change" : null,
  "account_number" : 47392720,
  "id" : 4738266,
  "register_date" : "2020-01-31T17:00:10.000+0000",
  "type" : "PAYMENT_ACCOUNT",
  "usage_status" : null,
  "consumer_id" : "8603525"
}
