{
    "category": "messaging:offline_notification",
    "channel_type": "messaging",
    "push_sound": "default",
    "channel": {
        "channel_url": "sendbird_group_channel_120244530_9eaed88b26e1cdd3733cca56ab247ec94402a1ed",
        "name": "Group Channel",
        "custom_type": ""
    },
    "app_id": "FFCC64B1-2705-4751-95A0-89C2439DEBBE",
    "recipient": {
        "push_template": "default",
        "id": "C3",
        "name": "anderson"
    },
    "type": "MESG",
    "message_id": 6653874862,
    "message": "12345",
    "audience_type": "only",
    "created_at": 1611341281596,
    "custom_type": "",
    "sender": {
        "profile_url": "https://picpay-dev.s3.amazonaws.com/profiles/da69e6085cbd31f787c943036f8583d2.jpg",
        "id": "C17",
        "name": "joao",
        "require_auth_for_profile_image": false
    },
    "unread_message_count": 8
}